<?xml version="1.0" encoding="UTF-8"?>
<svg width="42px" height="22px" viewBox="0 0 42 22" version="1.1" xmlns="http://www.w3.org/2000/svg" xmlns:xlink="http://www.w3.org/1999/xlink">
    <!-- Generator: Sketch 51.2 (57519) - http://www.bohemiancoding.com/sketch -->
    <title>Open in app</title>
    <desc>Created with Sketch.</desc>
    <defs></defs>
    <g id="Home-Page" stroke="none" stroke-width="1" fill="none" fill-rule="evenodd">
        <g id="Home-Page-new-breaking-new-option" transform="translate(-194.000000, -17.000000)">
            <g id="Open-in-app" transform="translate(195.000000, 18.000000)">
                <g id="Group-3">
                    <g id="Group-10">
                        <path d="M33.7052466,14 L26.294776,14 C26.1320092,14 26,14.2239144 26,14.5 C26,14.7760856 26.1319639,15 26.294776,15 L33.705224,15 C33.8680361,15 34,14.7761623 34,14.5 C34,14.2239144 33.8680361,14 33.7052466,14 Z" id="Shape" stroke="#000000" stroke-width="0.5" fill="#000000" fill-rule="nonzero"></path>
                        <path d="M32.9265004,9.11241283 C32.8201285,8.9876569 32.6373552,8.97680149 32.5182276,9.08828452 L30.289143,11.1748722 L30.289143,5.30297536 C30.289143,5.13568108 30.1596998,5 29.9999978,5 C29.8403401,5 29.7108526,5.13563459 29.7108526,5.30297536 L29.7108526,11.1748722 L27.481768,9.08830776 C27.3627069,8.97682473 27.1799114,8.98770339 27.0734951,9.11243608 C26.9671454,9.23723849 26.9774165,9.42877731 27.0964998,9.5402371 L29.5184071,11.8072524 C29.655659,11.9357741 29.827784,12 29.9999756,12 C30.1721006,12 30.3442478,11.9357741 30.4815441,11.8073222 L32.9034513,9.5402371 C33.022579,9.42870758 33.0328723,9.23716876 32.9265004,9.11241283 Z" id="Shape" stroke="#000000" stroke-width="0.6" fill="#000000" fill-rule="nonzero"></path>
                        <rect id="Rectangle-8" stroke="#000000" stroke-width="1.5" fill-rule="nonzero" x="0" y="0" width="40" height="20" rx="3"></rect>
                        <text id="ऐप" font-family="NotoSansDevanagari-SemiBold, Noto Sans Devanagari" font-size="12" font-weight="500" fill="#000000">
                            <tspan x="8" y="14">ऐप</tspan>
                        </text>
                    </g>
                </g>
            </g>
        </g>
    </g>
</svg>