<svg xmlns="http://www.w3.org/2000/svg" viewBox="1344.6 -1867 7.4 12">
  <defs>
    <style>
      .cls-1 {
        fill-rule: evenodd;
        opacity: 0.54;
      }
    </style>
  </defs>
  <path id="arrow" class="cls-1" d="M8.6,7.4,10,6l6,6-6,6L8.6,16.6,13.2,12Z" transform="translate(1336 -1873)"/>
</svg>
