<svg xmlns="http://www.w3.org/2000/svg" viewBox="2498.031 -8926.153 18.072 20">
  <path id="share" d="M18.06,16.137a2.924,2.924,0,0,0-1.968.773L8.934,12.743a3.287,3.287,0,0,0,.09-.7,3.287,3.287,0,0,0-.09-.7l7.078-4.127a3.005,3.005,0,1,0-.964-2.2,3.287,3.287,0,0,0,.09.7L8.06,9.841a3.012,3.012,0,1,0,0,4.4l7.149,4.177a2.832,2.832,0,0,0-.08.653,2.932,2.932,0,1,0,2.932-2.932Z" transform="translate(2495.031 -8928.153)"/>
</svg>
