<?xml version="1.0" encoding="UTF-8"?>
<svg width="85px" height="651px" viewBox="0 0 85 651" version="1.1" xmlns="http://www.w3.org/2000/svg" xmlns:xlink="http://www.w3.org/1999/xlink">
    <!-- Generator: Sketch 51.1 (57501) - http://www.bohemiancoding.com/sketch -->
    <title>Artboard 2</title>
    <desc>Created with Sketch.</desc>
    <defs></defs>
    <g id="Artboard-2" stroke="none" stroke-width="1" fill="none" fill-rule="evenodd" opacity="0.7">
        <g id="india-copy" transform="translate(22.000000, 24.000000)" fill="#FFFFFF" fill-rule="nonzero">
            <path d="M16.552,13.376 L17.123,11.198 C17.1835007,10.9673401 17.0556542,10.7291006 16.83,10.652 L16.39,10.501 C16.2943481,10.4682898 16.2123494,10.4045913 16.157,10.32 L14.646,8.01 C14.5651765,7.88651351 14.5492677,7.73149638 14.6033248,7.59416763 C14.6573818,7.45683888 14.7746888,7.35425982 14.918,7.319 C15.0565571,7.28500636 15.171148,7.18799249 15.2275366,7.05694303 C15.2839252,6.92589356 15.2755821,6.77598308 15.205,6.652 L15.008,6.3 C14.9336996,6.16962279 14.9284619,6.01099452 14.994,5.876 L16.494,2.789 C16.5972369,2.57722801 16.5217428,2.32167614 16.32,2.2 L15.343,1.612 C15.2651108,1.56491701 15.1748912,1.54227504 15.084,1.547 L12.051,1.707 C11.9799785,1.71068457 11.9090821,1.69766978 11.844,1.669 L8.127,0.039 C7.99144186,-0.0211329765 7.83508402,-0.0114305806 7.708,0.065 L6.364,0.871 C6.23944672,0.945780338 6.15809111,1.0755428 6.14504522,1.22023359 C6.13199933,1.36492437 6.18883175,1.50714641 6.298,1.603 L7.089,2.296 C7.18465802,2.37982038 7.2408664,2.49985247 7.244,2.627 L7.308,5.17 C7.30995062,5.28131328 7.35264474,5.38804858 7.428,5.47 L9.368,7.582 C9.5003588,7.72613936 9.5257289,7.93876495 9.431,8.11 L7.796,11.05 C7.652,11.309 7.831,11.635 7.615,11.873 L5.429,14.273 L12.129,15.273 L18.652,14.273 L16.552,13.376 Z" id="Path_4080"></path>
            <path d="M14.272,28.518 L6.645,29.518 L8.592,34.782 L12.092,44.236 C12.2496542,44.6628247 12.6424739,44.9579155 13.0963189,44.9904561 C13.5501639,45.0229968 13.9810649,44.7869667 14.198,44.387 C14.2715021,44.2289322 14.3588425,44.0776761 14.459,43.935 C14.62,43.735 14.786,43.535 14.949,43.335 L16.049,42.019 C16.1780341,41.8641662 16.2645375,41.678408 16.3,41.48 L16.878,38.231 C16.9117846,38.0412033 16.8976926,37.845977 16.837,37.663 L16.611,36.981 C16.5325883,36.7443255 16.5325883,36.4886745 16.611,36.252 L17.211,34.442 C17.2966263,34.182933 17.470834,33.9623406 17.703,33.819 L18.076,33.589 C18.2195513,33.5006937 18.380621,33.4447288 18.548,33.425 L18.677,33.41 C18.9966597,33.3727897 19.2864563,33.2043454 19.477,32.945 C19.651,32.707 19.814,32.454 20.003,32.228 C20.333,31.834 20.833,31.811 21.183,31.461 L22.063,30.581 C22.1704074,30.4736356 22.2556874,30.3462253 22.314,30.206 L22.6,29.518 L14.272,28.518 Z" id="Path_4081"></path>
            <path d="M8.592,34.786 L12.092,44.24 C12.2496542,44.6668247 12.6424739,44.9619155 13.0963189,44.9944561 C13.5501639,45.0269968 13.9810649,44.7909667 14.198,44.391 C14.271516,44.2329394 14.3588557,44.0816845 14.459,43.939 C14.62,43.739 14.786,43.539 14.949,43.339 L16.049,42.023 C16.1780733,41.8681911 16.2645818,41.682422 16.3,41.484 L16.878,38.235 C16.9117846,38.0452033 16.8976926,37.849977 16.837,37.667 L16.611,36.985 C16.5325883,36.7483255 16.5325883,36.4926745 16.611,36.256 L17.211,34.446 C17.2965496,34.1868917 17.4707761,33.9662756 17.703,33.823 L18.076,33.593 C18.219468,33.5043421 18.3805428,33.4480342 18.548,33.428 L18.677,33.413 C18.9966207,33.3756726 19.2863739,33.2072536 19.477,32.948 C19.651,32.71 19.814,32.457 20.003,32.231 C20.333,31.837 20.833,31.814 21.183,31.464 L22.063,30.584 C22.1704276,30.4766521 22.2557104,30.3492376 22.314,30.209 L22.6,29.52 L17.286,29.52 C14.8573838,31.9537071 11.8738029,33.7608773 8.592,34.786 Z" id="Path_4082"></path>
            <path d="M39.806,14.275 L39.111,13.251 C39.0355765,13.1395723 38.9085044,13.0743395 38.774,13.078 L36.355,13.141 C36.2268424,13.1441258 36.1082179,13.2094066 36.037,13.316 L35.82,13.641 C35.7898879,13.6862094 35.7507307,13.7246856 35.705,13.754 L34.894,14.273 L32.86,15.573 C32.7564574,15.6394172 32.6898775,15.7503837 32.68,15.873 L32.604,16.692 C32.5853698,16.8950472 32.4148999,17.0503354 32.211,17.05 L30.611,17.05 C30.5203106,17.0494188 30.4325106,17.0180365 30.362,16.961 L28.41,15.371 C28.3146983,15.2963079 28.1906925,15.268805 28.0727488,15.2962021 C27.9548051,15.3235993 27.8556196,15.4029473 27.803,15.512 L26.934,17.394 C26.8456853,17.5889152 26.6179387,17.6777054 26.421,17.594 L23.421,16.314 C23.0034809,21.3057353 20.828466,25.9874389 17.283,29.526 L22.588,29.526 L22.713,29.226 C22.747316,29.1434689 22.808674,29.0750583 22.887,29.032 L25.501,27.596 C25.6115114,27.5334203 25.6857385,27.4220796 25.701,27.296 L25.826,26.287 C25.8389653,26.1818192 25.8937558,26.0862963 25.978,26.022 L27.229,25.065 C27.3190612,24.995795 27.4346066,24.9688223 27.546,24.991 L28.425,25.166 C28.5589899,25.1930304 28.697416,25.1486827 28.7907541,25.0488232 C28.8840922,24.9489636 28.9190043,24.8078621 28.883,24.676 L27.683,20.276 C27.6306998,20.0843226 27.7292993,19.8836941 27.913,19.808 L29.953,18.962 C30.07342,18.9118885 30.2108355,18.9246191 30.32,18.996 L31.48,19.754 C31.5319733,19.7880146 31.5912523,19.8092591 31.653,19.816 L32.953,19.958 C33.0905698,19.9727543 33.2103193,20.0585868 33.2684814,20.1841269 C33.3266435,20.309667 33.3146939,20.4565151 33.237,20.571 L32.451,21.733 C32.3716103,21.8574735 32.3672392,22.0155569 32.4396293,22.1442272 C32.5120195,22.2728976 32.6493994,22.3512316 32.797,22.348 C32.926385,22.3423996 33.0504749,22.3997865 33.13,22.502 L34.06,23.717 C34.1561106,23.840754 34.3164179,23.8957943 34.4682769,23.8571788 C34.6201358,23.8185632 34.7346791,23.6936323 34.76,23.539 L35.033,21.822 C35.0510562,21.7171158 35.110166,21.6237515 35.1972485,21.5625685 C35.2843311,21.5013855 35.3922057,21.4774288 35.497,21.496 L36.097,21.61 C36.2018487,21.6302965 36.3104452,21.6071612 36.3979175,21.5458929 C36.4853897,21.4846247 36.5442437,21.3904724 36.561,21.285 L36.921,19.027 C36.969,18.727 37.315,18.527 37.415,18.245 C37.515,17.963 37.382,17.431 37.767,17.297 L39.983,16.527 C40.1134419,16.4815784 40.2105735,16.3711671 40.239,16.236 L40.418,15.391 C40.4392265,15.2870004 40.4175935,15.1788356 40.358,15.091 L39.806,14.275 Z" id="Path_4083"></path>
            <path d="M17.287,29.522 L6.645,29.522 L8.592,34.786 C11.8739796,33.761638 14.8579089,31.955151 17.287,29.522 Z" id="Path_4084"></path>
            <path d="M5.429,14.275 L4.568,15.221 C4.48355161,15.3139461 4.35265793,15.3491116 4.233,15.311 L2.856,14.87 C2.69052165,14.817541 2.51331982,14.9061419 2.456,15.07 L1.856,16.833 C1.81182122,16.9633607 1.85567005,17.107378 1.965,17.191 L2.265,17.419 C2.30438207,17.4493139 2.33621284,17.4883323 2.358,17.533 L3.464,19.797 C3.48469561,19.8390614 3.49595788,19.8851344 3.497,19.932 L3.511,20.793 C3.51316092,20.9301108 3.42798624,21.0534534 3.299,21.1 L0.646,22.051 C0.524826602,22.0946448 0.441471711,22.206488 0.434279228,22.3350809 C0.427086745,22.4636737 0.49744947,22.5841147 0.613,22.641 L1.633,23.141 C1.74132392,23.1942852 1.81059288,23.30384 1.81228111,23.4245485 C1.81396934,23.545257 1.74779134,23.6567062 1.641,23.713 L1.295,23.894 C1.21422259,23.9362445 1.15521547,24.0108404 1.13270288,24.0991737 C1.1101903,24.187507 1.12629561,24.2812461 1.177,24.357 L2.077,25.701 C2.1081231,25.747523 2.1508703,25.7850992 2.201,25.81 L3.752,26.575 C3.8903161,26.644501 4.05853127,26.6053909 4.152,26.482 L5.389,24.851 C5.4733777,24.741783 5.61812295,24.6987255 5.74847703,24.744066 C5.87883111,24.7894066 5.96561253,24.9129951 5.964,25.051 L5.955,25.351 C5.95361276,25.3969438 5.96213952,25.4426472 5.98,25.485 L6.594,26.94 C6.618786,26.9983395 6.62574511,27.0627112 6.614,27.125 L6.341,28.562 C6.33011558,28.6192172 6.33495401,28.6783152 6.355,28.733 L6.644,29.515 L17.286,29.515 C20.831466,25.9764389 23.0064809,21.2947353 23.424,16.303 L18.656,14.268 L5.429,14.275 Z" id="Path_4085"></path>
        </g>
        <g id="speech-bubbles-comment-option-copy" transform="translate(22.000000, 86.000000)" fill="#FFFFFF" fill-rule="nonzero">
            <g id="Group_2468" transform="translate(0.000000, 0.804000)">
                <path d="M23.605,22.328 C25.834702,21.4468508 27.8044593,20.014519 29.33,18.165 C32.1275689,14.8522847 32.1275689,10.0047153 29.33,6.692 C27.8030032,4.84186269 25.8314709,3.40949114 23.6,2.529 C21.1012354,1.4926699 18.419031,0.971262405 15.714,0.996 C13.00758,0.969513532 10.3236566,1.48956409 7.823,2.525 C5.59318843,3.40878064 3.6240817,4.84389233 2.1,6.696 C0.754486113,8.30457308 0.0118707761,10.331913 0,12.429 C0.00624390244,14.2184311 0.559666055,15.9631415 1.586,17.429 C2.71714509,19.0599808 4.20560516,20.4112918 5.938,21.38 C5.78933333,21.7373333 5.63666667,22.0646667 5.48,22.362 C5.32035011,22.664613 5.13358521,22.9521238 4.922,23.221 C4.706,23.4963333 4.53933333,23.712 4.422,23.868 C4.30466667,24.024 4.111,24.2433333 3.841,24.526 C3.57433333,24.8086667 3.40333333,24.9946667 3.328,25.084 C3.328,25.069 3.298,25.103 3.239,25.184 C3.18,25.265 3.146,25.303 3.139,25.296 C3.132,25.289 3.102,25.325 3.05,25.407 L2.972,25.53 L2.916,25.641 C2.89444198,25.6831897 2.8792762,25.72835 2.871,25.775 C2.86331185,25.8229439 2.85963246,25.871445 2.86,25.92 C2.85965927,25.9692679 2.86742979,26.0182559 2.883,26.065 C2.90720477,26.247905 2.99886234,26.4151712 3.14,26.534 C3.26614193,26.6467275 3.42883995,26.7099595 3.598,26.712 L3.665,26.712 C4.31077718,26.6264976 4.95164958,26.5073354 5.585,26.355 C7.80941819,25.7891556 9.91119006,24.8201238 11.786,23.496 C13.0823003,23.730184 14.3967205,23.8496463 15.714,23.853 C18.4202108,23.8814691 21.1042656,23.3627536 23.605,22.328 Z" id="Path_4073"></path>
                <path d="M38.416,23.158 C40.5619933,20.1058619 40.5262052,16.0260223 38.327,13.012 C37.1358339,11.3540728 35.5771779,9.99427031 33.773,9.039 C34.7097162,12.0661338 34.3543605,15.3457561 32.791,18.102 C31.7199646,19.9697187 30.2579231,21.5838999 28.505,22.834 C26.7147196,24.1151748 24.7229675,25.0882368 22.612,25.713 C20.3742521,26.386371 18.0488432,26.7233868 15.712,26.713 C15.266,26.713 14.6113333,26.6833333 13.748,26.624 C16.8892335,28.6311338 20.557285,29.6567677 24.284,29.57 C25.6016105,29.5666376 26.9163619,29.4471756 28.213,29.213 C30.6126899,30.942099 33.4048961,32.0469535 36.338,32.428 C36.5158794,32.4431818 36.6925026,32.3870653 36.829,32.272 C36.980753,32.1482572 37.0835458,31.9745728 37.119,31.782 C37.112,31.693 37.119,31.644 37.141,31.636 C37.163,31.628 37.159,31.58 37.13,31.491 L37.086,31.357 L37.03,31.246 C37.0068185,31.2032791 36.9807584,31.1621843 36.952,31.123 C36.9251601,31.0835051 36.8954109,31.0460679 36.863,31.011 C36.841,30.989 36.808,30.951 36.763,30.9 C36.718,30.849 36.689,30.815 36.674,30.8 C36.5993333,30.7106667 36.4283333,30.5246667 36.161,30.242 C35.8936667,29.9593333 35.7003333,29.74 35.581,29.584 C35.4616667,29.428 35.295,29.2123333 35.081,28.937 C34.869361,28.6681623 34.6825929,28.3806465 34.523,28.078 C34.367,27.7806667 34.2143333,27.4533333 34.065,27.096 C35.7944757,26.129261 37.2821334,24.7828129 38.416,23.158 Z" id="Path_4074"></path>
            </g>
        </g>
        <g id="earth-globe-with-continents-maps-copy" transform="translate(22.000000, 136.000000)" fill="#FFFFFF" fill-rule="nonzero">
            <path d="M36,15.513 L36.355,15.768 L36.686,15.768 L36.686,15.13 L37.73,15.03 L38.721,15.768 L40.351,15.768 L40.466,15.668 C40.3026667,15.1186667 40.1183333,14.5793333 39.913,14.05 L38.85,14.068 L38.317,13.482 L38.217,12.54 L37.67,12.84 L37.377,13.991 L36.588,13.151 L36.556,12.357 L35.794,11.701 L35.514,11.421 L34.631,11.421 L34.909,12.208 L35.972,12.801 L36.157,13.001 L35.926,13.116 L35.937,13.74 L35.419,13.957 L34.977,13.857 L34.7,13.46 L35.42,13.498 L35.614,13.236 L34.021,12.161 L33.9,11.7 L33.253,12.286 L32.597,12.151 L31.597,13.451 L31.397,13.96 L30.758,14.018 L29.813,14.024 L29.248,13.759 L29.081,12.636 L29.281,12.101 L30.243,11.891 L31.292,12.101 L31.421,11.521 L30.975,11.415 L31.127,10.515 L32.183,10.35 L32.925,9.3 L33.687,9.172 L34.375,9.272 L34.629,9.272 L34.489,8.292 L33.653,8.629 L33.358,7.9 L32.872,7.833 L32.781,7.333 L33.181,6.902 L34.123,6.533 L34.365,6.1 C27.2047182,-0.226557169 16.6078523,-0.721543448 8.889,4.91 L9.918,4.9 L10.377,5.154 L11.242,5.34 L11.309,5.68 L12.684,5.731 L12.5,5.291 L11.279,5.256 L11.567,4.985 L11.467,4.662 L10.367,4.662 L11.567,3.762 L12.721,3.762 L13.263,4.509 L14.163,4.56 L14.705,4.034 L15.112,4.234 L14.365,4.964 L13.382,4.983 C13.4352041,5.21669919 13.463694,5.45534388 13.467,5.695 L14.721,5.66 L14.857,5.322 L15.722,5.271 L15.822,4.762 L15.313,4.676 L15.483,4.218 L15.873,4.1 L17.23,4.167 L16.482,4.846 L16.603,5.371 L17.383,5.49 L17.332,4.54 L18.078,4.149 L19.4,4 L21.316,4.849 L21.316,5.579 L21.927,5.732 L21.621,6.309 L20.756,6.309 L20.499,6.97 L18.524,6.5 L20.078,5.672 L19.486,5.172 L18.146,5.342 L18.029,5.464 L18,5.491 L17.614,5.891 L16.976,5.943 L17.027,6.261 L17.25,6.353 L17.241,6.453 L16.722,6.527 L16.684,6.827 L16.184,6.853 L16.094,6.253 L15.204,6.524 L13.391,7.6 L13.591,8.35 L14.1,8.682 L15.117,8.822 L15.117,9.976 L15.587,9.901 L16.02,9.001 L17.102,8.658 L17.102,7.267 L17.702,6.813 L19.157,7.156 L19.057,8.073 L19.448,8.073 L20.518,7.548 L20.569,8.748 L21.347,9.223 L21.314,9.937 L20.568,10.191 L20.619,10.427 L21.519,10.836 L21.5,11.328 L21.24,11.35 C21.2403975,11.3456758 21.2403975,11.3413242 21.24,11.337 L20.106,10.987 L20.058,10.623 L20.39,10.4 L20.39,10.066 L20.033,9.976 L19.944,10.282 L19.318,10.382 L19.256,10.362 L19.256,10.39 L19.039,10.423 L18.862,10.066 L18.662,9.976 L18.216,9.976 L18.016,10.143 L18.016,10.512 L18.397,10.639 L18.773,10.692 L18.689,10.729 L18.346,11.11 L18.195,10.92 L17.863,10.832 L16.963,11.682 L17.081,11.782 L15.746,12.521 L14.48,13.826 L14.394,14.407 L13.135,15.234 L12.511,15.862 L12.58,17.117 L11.715,16.717 L11.721,15.983 L9.314,15.983 L8.067,16.614 L7.526,17.614 L7.31,18.4 L7.661,19.168 L8.644,19.288 L10.2,18.246 L10.337,18.763 L9.86,19.663 L11.048,19.863 L11.167,21.699 L12.796,21.976 L13.831,20.776 L15.087,21.032 L15.528,21.645 L16.728,21.574 L16.762,21.218 L17.424,21.539 L18.17,22.709 L19.459,22.727 L19.935,23.56 L20.002,24.577 L21.427,25.119 L23.227,25.138 L23.753,26.002 L24.553,26.258 L24.4,26.973 L23.527,28.082 L23.272,30.54 L22.483,31.163 L21.313,31.128 L20.923,31.806 L21.212,33.081 L19.938,34.709 L19.531,35.456 L18.318,36.038 L17.518,36.16 L17.485,36.498 L18.045,36.659 L17.978,37.024 L17.478,37.507 L17.778,37.891 L18.378,37.908 L18.344,38.373 L18.183,38.832 L18.132,39.205 L19.025,39.957 L18.906,40.348 L17.691,40.325 L16.5,39.275 L15.558,37.62 L15.689,36.02 L14.976,35.069 L15.264,33.458 L14.841,33.34 L14.841,29.84 C14.841,29.84 13.653,28.94 13.585,28.94 C13.517,28.94 12.957,28.787 12.957,28.787 L12.838,28.127 L11.293,26.2 L11.446,25.505 L11.497,24.368 L12.566,23.621 L12.413,22.348 L10.853,22.231 L9.631,20.838 L8.766,20.598 L8.207,20.498 L8.274,19.989 L7.561,19.889 L7.561,20.177 L5.779,19.732 L5.062,18.632 L5.354,18.1 L4.225,16.454 L4.032,15.254 L3.574,15.254 L3.726,16.424 L4.506,17.624 L4.42,18.1 L3.759,18 L2.945,16.61 L2.945,15 L2.1,14.588 L2.1,13.426 C-1.88423566,22.7856206 1.63259785,33.6502607 10.3457494,38.8997961 C19.0589009,44.1493315 30.3075872,42.1806824 36.72,34.284 L36.046,34.284 L36.046,32.927 L35.267,31.878 L35.267,30.246 L34.672,29.653 L34.62,28.974 L35.376,27.532 L33.942,25 L34.11,23.284 L32.821,23.151 L32.346,22.676 L31.48,22.676 L31.04,23.083 L29.512,23.083 L29.461,23.219 L28.612,23.219 L26.662,21 L26.678,19.269 L27,19.151 L27.12,18.489 L26.662,18.489 L26.475,17.794 L28.73,16.166 L28.73,15.012 L29.83,14.399 L30.277,14.443 L31.185,14.443 L31.896,14.061 L34.187,13.883 L34.187,15.054 L36,15.513 Z M30.276,8.234 L30.462,7.946 L31.133,7.81 L31.301,8.625 L31.658,9.201 L31.895,9.473 L32.327,9.642 L31.92,10.127 L31.131,10.202 L30.538,10.202 L30.605,9.502 L31.098,9.402 L31.056,9.071 L30.596,8.783 L30.275,8.563 L30.275,8.234 L30.276,8.234 Z M29.176,9.507 L29.583,8.854 L30.132,8.726 L30.523,8.896 L30.487,9.337 L29.647,9.931 L29.173,9.931 L29.173,9.507 L29.176,9.507 Z M18.082,12.018 L17.657,12.054 L17.68,11.754 L17.87,11.517 L18.126,11.717 L18.082,12.018 Z M19.572,11.496 L19.282,11.521 L19.223,11.801 L19,11.94 L18.641,11.97 C18.629,11.886 18.621,11.822 18.621,11.822 L18.482,11.822 L18.482,11.522 L19.067,11.522 L19.188,11.21 L19.421,11.21 L19.686,11.265 L19.572,11.496 Z" id="Path_4075"></path>
        </g>
        <g id="drugs-copy" transform="translate(21.000000, 195.000000)" fill="#FFFFFF" fill-rule="nonzero">
            <g id="Group_2470" transform="translate(14.530000, 0.999000)">
                <g id="Group_2469">
                    <path d="M23.64,3.087 C19.5126547,-1.02860898 12.8333453,-1.02860898 8.706,3.087 L2.84217094e-14,11.793 L9.885,21.678 C13.2339621,18.8274698 17.9109706,18.1257634 21.949,19.868 L23.64,18.02 C27.7560436,13.8932247 27.7560436,7.21377528 23.64,3.087 Z" id="Path_4076"></path>
                </g>
            </g>
            <g id="Group_2472" transform="translate(0.263000, 13.451000)">
                <g id="Group_2471">
                    <path d="M22.507,10.898 L12.607,0.998 L4.087,9.529 C-0.0584493322,13.6744493 -0.0584493322,20.3955507 4.087,24.541 C8.23244933,28.6864493 14.9535507,28.6864493 19.099,24.541 L20.826,22.805 C19.1123583,18.8345209 19.7607066,14.2393524 22.506,10.898 L22.507,10.898 Z" id="Path_4077"></path>
                </g>
            </g>
            <g id="Group_2474" transform="translate(21.491000, 22.387000)">
                <g id="Group_2473">
                    <path d="M0.997,9.268 C1.00559275,13.9864945 4.52678622,17.9600025 9.21,18.536 L9.21,0 C4.52678622,0.575997487 1.00559275,4.54950547 0.997,9.268 Z" id="Path_4078"></path>
                </g>
            </g>
            <g id="Group_2476" transform="translate(33.050000, 22.387000)">
                <g id="Group_2475">
                    <path d="M-5.68434189e-14,-5.68434189e-14 L-5.68434189e-14,18.535 C4.68803618,17.9681529 8.21443374,13.9896816 8.21443374,9.2675 C8.21443374,4.54531842 4.68803618,0.566847066 -5.68434189e-14,-5.68434189e-14 Z" id="Path_4079"></path>
                </g>
            </g>
        </g>
        <g id="clapperboard-(1)-copy" transform="translate(22.000000, 253.000000)" fill="#FFFFFF" fill-rule="nonzero">
            <polygon id="Shape" points="36 14 41 19 41 14"></polygon>
            <path d="M28.4743624,14 L22.0408054,14 L30.2034899,22.1052324 L22.6102013,22.1052324 L14.4475168,14 L7.61127517,14 L15.7739597,22.1052324 L8.18067114,22.1052324 L1.13087248,15.105053 C1.04711409,15.3101762 1,15.5339591 1,15.7689378 L1,37.7785649 C1,39.005439 2.00161074,40 3.23718121,40 L38.7628188,40 C39.9983893,40 41,39.005439 41,37.7785649 L41,22.1052324 L36.637047,22.1052324 L28.4743624,14 Z" id="Shape"></path>
            <polygon id="Shape" points="33 0 26.5676352 0.958336067 20 10 26.4324924 9.04179516"></polygon>
            <polygon id="Shape" points="20 2 13.7648635 2.90689541 7 12 13.2352679 11.0929726"></polygon>
            <path d="M39.9835763,5.29049725 L39.4540402,1 L35,8 L38.6550642,7.37840411 C39.5130616,7.23248111 40.1078877,6.29779638 39.9835763,5.29049725 Z" id="Shape"></path>
            <path d="M6,4 L1.56790079,4.62877648 C0.567713625,4.77071034 -0.125784412,5.67997839 0.019148266,6.65960566 L0.582606802,10.468457 L0.661209682,11 L2.49500107,8.59563221 L6,4 Z" id="Shape"></path>
        </g>
        <g id="icon-(4)-copy" transform="translate(20.000000, 310.000000)" fill="#FFFFFF" fill-rule="nonzero">
            <path d="M22.5249415,0 C10.1040769,0 0,10.0929917 0,22.5027713 C0,34.9125508 10.1040769,45 22.5249415,45 C34.9153221,45 45,34.9070083 45,22.5027713 C45,10.0929917 34.9153221,0 22.5249415,0 Z M22.5249415,42.3340313 C11.5756251,42.3340313 2.66596872,33.4382313 2.66596872,22.5027713 C2.66596872,11.5673112 11.5756251,2.67151127 22.5249415,2.67151127 C33.4437739,2.67151127 42.33126,11.5673112 42.33126,22.5027713 C42.33126,33.4382313 33.4437739,42.3340313 22.5249415,42.3340313 Z" id="Shape"></path>
            <circle id="Oval" cx="29.5" cy="15.5" r="3.5"></circle>
            <circle id="Oval" cx="14.5" cy="15.5" r="3.5"></circle>
            <path d="M31.5476392,27.2393552 C32.0721109,26.7271913 32.0721109,25.8962869 31.5476392,25.384123 C31.0259425,24.871959 30.1823478,24.871959 29.6606511,25.384123 C27.1742667,27.8250746 24.6101828,29.0019621 22.0793987,28.8875425 C18.1694483,28.715913 15.4166656,25.5394067 15.3639409,25.4767484 C14.8977438,24.920996 14.0541491,24.8392677 13.4880527,25.2996704 C12.9164063,25.7573488 12.8359318,26.5855289 13.3049038,27.1440055 C13.4464279,27.315635 16.8124818,31.2631115 21.9295496,31.5082964 C22.0960486,31.5164692 22.2625475,31.5219178 22.4318215,31.5219178 C23.0090179,31.5219178 23.5806643,31.4565351 24.1523107,31.3611854 C25.0652799,32.8976773 27.8458125,37.0848902 30.5319956,35.7363734 C33.2681284,34.3633381 31.4643897,29.4814347 30.8039439,27.9258729 C31.0481423,27.6997579 31.3034407,27.4818158 31.5476392,27.2393552 Z" id="Shape"></path>
        </g>
        <g id="global-grid-screen-copy" transform="translate(22.000000, 371.000000)" fill="#FFFFFF" fill-rule="nonzero">
            <path d="M9.37131732,28.7591528 C7.22131875,27.3981268 5.46299425,25.4679934 4.31365419,23.170867 C5.66063504,23.9931806 7.27096516,24.6800583 9.10006585,25.185085 C9.18364016,25.4555236 9.27941134,25.710375 9.37131732,25.9710283 L9.37131732,17.6987928 C9.37131732,16.6555734 9.72141896,15.6999889 10.2913219,14.9195877 C10.3997194,13.4161983 10.5912618,11.9954212 10.8984167,10.730863 C12.3644458,10.4113246 13.9531308,10.2073915 15.6054628,10.1402798 L15.6054628,12.9908398 L17.8599937,12.9908398 L17.8599937,10.1402798 C19.5162768,10.2073915 21.0992928,10.4114112 22.5670398,10.730863 C22.7393421,11.441901 22.8785753,12.2028182 22.990838,12.9908398 L25.2478598,12.9908398 C25.1755375,12.4563706 25.1047614,11.9206025 25.0062416,11.409774 C26.2860538,11.8496805 27.4158101,12.3843229 28.3483551,12.9908398 L33,12.9908398 C31.2546454,5.55503297 24.6308014,0 16.7329859,0 C7.50742978,0 0,7.56855815 0,16.8719763 C0,23.5091101 3.83162024,29.246687 9.37131732,32 L9.37131732,28.7591528 Z M29.3394795,10.9640655 C27.9565952,10.0878027 26.2749735,9.3669794 24.3680534,8.8350215 C23.756578,6.87492592 22.9367252,5.18804004 21.9474046,3.86875326 C25.213073,5.2074375 27.8549833,7.75699058 29.3394795,10.9640655 Z M17.8599937,3.28154725 C19.3414837,3.88130965 20.7713517,5.64180195 21.7913362,8.25846677 C20.5435623,8.04769263 19.22192,7.92022363 17.8599937,7.87250936 L17.8599937,3.28154725 Z M15.6054628,3.28154725 L15.6054628,7.87250936 C14.2422481,7.92022363 12.9219801,8.04769263 11.6724883,8.25846677 C12.6939331,5.64180195 14.1225986,3.88130965 15.6054628,3.28154725 Z M11.5181378,3.86875326 C10.5286455,5.18795344 9.70887852,6.87492592 9.10006585,8.8350215 C7.18910871,9.3669794 5.50894723,10.0878027 4.12460274,10.9640655 C5.61038738,7.75699058 8.25100925,5.2074375 11.5181378,3.86875326 Z M2.94751911,15.0358858 C3.90222464,13.5659224 5.88000687,12.293051 8.45930083,11.4096874 C8.18701864,12.812972 8.0160907,14.3086544 7.95922925,15.8737866 L2.86566267,15.8737866 C2.88232599,15.592004 2.91281816,15.3110872 2.94751911,15.0358858 Z M3.00326395,19.0710762 C2.95172789,18.7634014 2.90732098,18.4601429 2.87674292,18.1455405 L7.95922925,18.1455405 C8.0160907,19.7098067 8.18701864,21.2078272 8.45930083,22.6123242 C5.92699058,21.7457602 3.9734303,20.5022447 3.00326395,19.0710762 Z" id="Shape"></path>
            <path d="M12,17.5654709 L12,32.434701 C12,33.849259 13.1507838,35 14.5662607,35 L37.4351138,35 C38.8506767,35 40,33.849259 40,32.434701 L40,17.5654709 C40,16.1505691 38.8505908,15 37.4351138,15 L14.5662607,15 C13.1507838,15.0000859 12,16.150655 12,17.5654709 Z M14.8079296,17.8086639 L37.192414,17.8086639 L37.192414,32.1911643 L14.8079296,32.1911643 L14.8079296,17.8086639 Z" id="Shape"></path>
            <path d="M39.9218178,37 L38.8014339,37 L12.191276,37 L11.0778431,37 C9.92948553,37 9,37.8950439 9,38.9999184 C9,40.104793 9.92948553,41 11.0778431,41 L39.9218178,41 C41.0686496,41 42,40.104793 42,38.9999184 C42,37.8950439 41.0686496,37 39.9218178,37 Z" id="Shape"></path>
        </g>
        <g id="car-copy" transform="translate(17.000000, 429.000000)" fill="#FFFFFF" fill-rule="nonzero">
            <path d="M11.5,15 C9.01876157,15 7,16.794361 7,19 C7,21.2055453 9.0186561,23 11.5,23 C13.9812384,23 16,21.205639 16,19 C16,16.7944547 13.9813439,15 11.5,15 Z M11.5,21.3999813 C10.0114257,21.3999813 8.80002109,20.3231772 8.80002109,19 C8.80002109,17.6768228 10.0114257,16.6000187 11.5,16.6000187 C12.9885743,16.6000187 14.1999789,17.6768228 14.1999789,19 C14.1999789,20.3231772 12.9885743,21.3999813 11.5,21.3999813 Z" id="Shape"></path>
            <path d="M50.1503269,14.8851419 L50.1503269,9.77028375 C50.1503269,9.40375221 49.9165423,9.07718051 49.5689036,8.96129701 L44.7731821,7.35780896 C42.9669547,4.28979318 40.4840769,1.37002837 34.9972616,0.405897592 C34.9871014,0.4041993 34.9768415,0.402501007 34.9666813,0.400802714 C24.8337587,-1.00408498 17.2262474,1.28821062 12.3420723,7.21635117 C8.70660763,7.26919804 4.99543941,8.03133188 2.81268639,9.43282299 C1.68221298,10.1590929 1.01153913,11.423322 0.948585633,12.7685696 L0.849971774,14.8852418 C0.380808871,14.8852418 0,15.2671578 0,15.7376848 L0,19.1475569 C0,19.6180839 0.380808871,20 0.849971774,20 L4.24995848,20 C4.72171124,20 5.09913338,19.6112908 5.09993026,19.1381664 C5.09993026,19.1338707 5.10082675,19.1296749 5.10082675,19.1244801 C5.11357682,15.8398821 7.77156895,13.1801559 11.0500315,13.1801559 C14.336164,13.1801559 17.0000331,15.8517701 17.0000331,19.147457 C16.9388726,19.6649368 17.3459785,19.9999001 17.8500049,19.9999001 L33.1500945,19.9999001 C33.6218473,19.9999001 33.9992694,19.6111909 34.0000663,19.1380665 C34.0000663,19.1337708 34.0008632,19.129575 34.0008632,19.1243802 C34.0136132,15.8397822 36.6716054,13.180056 39.9500679,13.180056 C43.2362005,13.180056 45.9000696,15.8516702 45.9000696,19.1473571 C45.8389091,19.6648369 46.246015,19.9998002 46.7500413,19.9998002 L50.150028,19.9998002 C50.619191,19.9998002 50.9999998,19.6178841 50.9999998,19.1473571 L50.9999998,15.737485 C51.0002987,15.2670579 50.6194898,14.8851419 50.1503269,14.8851419 Z M27.2001925,6.78668311 C27.2001925,7.0219466 27.0098379,7.21295458 26.7751568,7.21295458 L15.6902618,7.21295458 C15.2975993,7.21295458 15.1190983,6.72874135 15.4088637,6.46360789 C18.3584141,3.76721852 22.1094263,2.22506881 26.7318265,1.81508097 C26.9808514,1.79290326 27.2001925,1.994101 27.2001925,2.24474903 L27.2001925,6.78668311 Z M37.4121058,6.79087889 C37.4095159,7.02444409 37.2199582,7.21285468 36.9870701,7.21285468 L29.3251717,7.21285468 C29.0905903,7.21285468 28.900136,7.0219466 28.900136,6.78658321 L28.900136,2.13206231 C28.900136,1.89589972 29.0880004,1.70159505 29.3225819,1.70159505 C31.0174453,1.69989676 32.8110222,1.82347253 34.7175568,2.0878068 C35.625402,2.24804571 36.4345337,2.46802457 37.1706513,2.73825292 C37.339789,2.80049035 37.4477662,2.96502495 37.4460728,3.14574328 L37.4121058,6.79087889 Z M41.8483349,7.21285468 L39.5371847,7.21285468 C39.3009098,7.21285468 39.1096587,7.01934921 39.112149,6.78238742 L39.1342624,4.4722098 C39.1376491,4.12016371 39.5379815,3.92915573 39.821073,4.13714664 C40.7399749,4.81056966 41.5040829,5.61276323 42.184917,6.52324793 C42.397385,6.80706262 42.2018506,7.21285468 41.8483349,7.21285468 Z" id="Shape"></path>
            <path d="M40.5,15 C38.0187616,15 36,16.794361 36,19 C36,21.2055453 38.0186561,23 40.5,23 C42.9812384,23 45,21.205639 45,19 C44.9998945,16.7944547 42.9812384,15 40.5,15 Z M40.5,21.3999813 C39.0114257,21.3999813 37.8000211,20.3231772 37.8000211,19 C37.8000211,17.6768228 39.0114257,16.6000187 40.5,16.6000187 C41.9885743,16.6000187 43.1999789,17.6768228 43.1999789,19 C43.1999789,20.3231772 41.9885743,21.3999813 40.5,21.3999813 Z" id="Shape"></path>
        </g>
        <g id="buddhist-yoga-pose-copy" transform="translate(27.000000, 468.000000)" fill="#FFFFFF" fill-rule="nonzero">
            <path d="M26.4475208,42.4412277 C25.9851259,42.371363 25.6360441,42.3229847 25.3519303,42.2839307 C24.4790871,42.1629849 24.2447036,42.1305525 23.2243318,41.8206881 C22.8221951,41.6985261 21.2491104,40.1506907 21.2491104,37.121371 C21.2491104,33.2188093 22.1989732,29.7724632 22.6070665,28.4720598 C22.6178714,28.4381409 22.6444681,28.3398978 22.6813156,28.2069251 C22.7487771,27.9627362 23.2440023,26.4881439 23.2440023,26.4881439 C23.5124629,25.7380099 23.7903431,24.9620651 23.9708406,24.1650393 L23.9805373,24.1242286 C24.2530151,22.9701763 25.147468,18.7518043 25.2109123,12.9168132 C25.2109123,12.3280303 24.7091764,11.8157338 24.4095478,11.5097883 C24.3546921,11.4535722 24.30607,11.4043831 24.2697765,11.3630318 C23.9812299,11.035735 23.6013956,10.6316815 23.1614417,10.1641147 C22.8716484,9.85573678 22.5524878,9.51600756 22.2085314,9.14438651 C21.6583119,8.55073876 21.0447867,8.00763148 20.4512091,7.48263228 C19.7213233,6.83736299 18.9670571,6.17006671 18.3471598,5.41777056 C17.4207077,4.29385335 16.5642105,2.32669418 16.7192194,0.741291188 C16.7427686,0.502102363 16.685558,0.295481055 16.5582539,0.158994777 C16.4169589,0.0072382509 16.1953196,-0.0400589744 16.0001385,0.0352111813 C15.8046804,-0.0400589744 15.5829026,0.0072382509 15.4418846,0.158994777 C15.3147191,0.295481055 15.2572314,0.502102363 15.2810576,0.741291188 C15.4357895,2.32669418 14.5792923,4.29385335 13.6531172,5.41777056 C13.0329429,6.17006671 12.2786767,6.83736299 11.5487909,7.48263228 C10.9554903,8.00763148 10.3415496,8.55073876 9.79160714,9.14438651 C9.44778923,9.51600756 9.12821312,9.85573678 8.83855831,10.1641147 C8.39846584,10.6316815 8.0189086,11.035735 7.73008493,11.3630318 C7.6937915,11.4043831 7.64558496,11.4535722 7.59059072,11.5097883 C7.29096214,11.8157338 6.78908773,12.3280303 6.78908773,12.9197862 C6.85267049,18.7518043 7.74712345,22.9701763 8.01960122,24.1242286 L8.02915942,24.1650393 C8.20965689,24.9620651 8.48767564,25.738145 8.75585916,26.4881439 C8.75585916,26.4881439 9.25094586,27.9627362 9.31840731,28.2069251 C9.35539337,28.3398978 9.3821286,28.4381409 9.39293352,28.4720598 C9.80088829,29.7724632 10.7506125,33.2188093 10.7506125,37.121371 C10.7506125,40.1508258 9.17766638,41.6985261 8.77566816,41.8206881 C7.7552964,42.1305525 7.52077435,42.1629849 6.6477927,42.2839307 C6.36367887,42.3229847 6.01487407,42.371363 5.55247916,42.4412277 C0.541076855,42.9614972 0,45.3883854 0,46.4078433 C0,46.6810861 0.145035194,47.5689226 0.806489875,48.3874349 C1.40089868,49.1228392 2.5847294,50 4.85071383,50 C5.19065306,50 5.55026276,49.9802703 5.91984624,49.9413514 C7.42796291,49.7832436 8.94785417,49.5456764 10.417461,49.3160821 C10.9513346,49.2327039 11.4842385,49.1494608 12.0181121,49.069596 C12.7292971,48.9632448 14.0110646,48.8927044 15.8272599,48.860272 C15.912314,48.8586504 15.9714639,48.8574342 16.0001385,48.8566234 C16.0288131,48.8574342 16.0879631,48.8587855 16.1727401,48.860272 C17.9892124,48.8927044 19.2708415,48.9632448 19.982165,49.069596 C20.5157615,49.1494608 21.0488039,49.2327039 21.582539,49.3160821 C23.0522844,49.5456764 24.5723141,49.7832436 26.0801538,49.9413514 C26.4497372,49.9801352 26.8093469,50 27.1492862,50 C29.4156862,50 30.5997939,49.1232446 31.1937872,48.3874349 C31.8552419,47.5690578 32,46.680951 32,46.4078433 C31.999723,45.3883854 31.4589231,42.9614972 26.4475208,42.4412277 Z M18.6499745,22.5724742 C18.5753097,22.5724742 18.5045237,22.5566634 18.4329065,22.5235553 C18.1997697,22.4328798 17.9008337,21.998421 17.8729903,21.8297726 C19.034103,21.0416657 19.8185675,19.5446409 19.8185675,17.8264003 C19.8185675,15.2889717 19.5440118,13.2318127 15.9998615,13.2318127 C12.4557111,13.2318127 12.1811555,15.2889717 12.1811555,17.8264003 C12.1811555,19.5446409 12.9656199,21.0416657 14.1265941,21.8297726 C14.0993048,21.9980156 13.7935811,22.4117987 13.5668164,22.5235553 C13.4953378,22.5566634 13.4246903,22.5724742 13.3497485,22.5724742 C12.6035168,22.5727444 11.6681991,20.9782874 11.4225951,20.3438289 C11.0041124,19.2658576 10.4817364,17.4130226 10.3696701,14.7091078 L10.3650987,14.6050539 C10.3364242,14.0354601 11.2159165,12.5788407 11.3324156,12.3296519 C11.49255,11.9865443 13.570141,8.89722472 14.1871293,8.16533394 C14.4055825,7.90655055 15.5122551,6.47303922 16,5.84033748 C16.4876064,6.47303922 17.5941404,7.90655055 17.8124551,8.16533394 C18.429859,8.89722472 20.5068959,11.9865443 20.6673073,12.3296519 C20.783945,12.5788407 21.6634373,14.0354601 21.6349013,14.6050539 L21.6303299,14.7091078 C21.5181251,17.4131577 20.9960261,19.2659927 20.5771279,20.3438289 C20.3315239,20.9781523 19.3964832,22.5724742 18.6499745,22.5724742 Z" id="Shape"></path>
        </g>
        <g id="college-graduation-copy" transform="translate(18.000000, 535.000000)" fill="#FFFFFF" fill-rule="nonzero">
            <path d="M23.6957895,24.895121 C22.9483158,25.3576022 21.9910526,25.6123651 21.0003158,25.6123651 C20.0095789,25.6123651 19.0523158,25.3577084 18.3048421,24.895121 L6.10147368,17.3444124 C6.10147368,17.3444124 5,16.6632748 5,18.2062947 C5,19.9585195 5,25.2151941 5,25.2151941 C5,25.2852831 5,25.6371086 5,25.7461713 C5,29.7180934 12.1634737,34 21,34 C29.8365263,34 37,29.7181996 37,25.7461713 C37,25.6371086 37,25.2852831 37,25.2151941 C37,25.2151941 37,19.6397208 37,17.7811943 C37,16.5426368 36.2169474,17.1478446 36.2169474,17.1478446 L23.6957895,24.895121 Z" id="Shape"></path>
            <path d="M41.296684,11.9928969 C42.2344387,11.4093769 42.2344387,10.4544676 41.296684,9.87084069 L22.7049703,0.437640053 C21.7672156,-0.145880018 20.2326791,-0.145880018 19.2949244,0.437640053 L0.703316039,9.87084069 C-0.23443868,10.4543608 -0.23443868,11.40927 0.703316039,11.9928969 L19.2949244,23.5623599 C20.2326791,24.14588 21.7672156,24.14588 22.7049703,23.5623599" id="Shape"></path>
            <path d="M40.8225389,28.7608469 C40.8225389,25.67822 40.8225389,16.4302363 40.8225389,16.4302363 C40.8225389,16.4302363 40.8305712,15.8462009 40.5052138,16.0390583 C40.2442116,16.1937772 39.6044323,16.5736167 39.3790434,16.7824511 C39.1188155,17.0233426 39.1774611,17.5640856 39.1774611,17.5640856 C39.1774611,17.5640856 39.1774611,25.9616823 39.1774611,28.7608469 C39.1774611,28.9197919 39.0492343,28.9956568 38.9880725,29.0340015 C38.3972613,29.4039456 38,30.0868321 38,30.8697034 C38,32.0462266 38.8953621,33 40.0000484,33 C41.1046379,33 42,32.0462266 42,30.8697034 C42,30.0838428 41.5998355,29.3987917 41.00525,29.0297753 C40.9461205,28.9930798 40.8225389,28.9196889 40.8225389,28.7608469 Z" id="Shape"></path>
        </g>
        <g id="runer-silhouette-running-fast-copy" transform="translate(15.000000, 585.000000)" fill="#FFFFFF" fill-rule="nonzero">
            <path d="M15.7819915,4 L32.2181177,4 C32.6500094,4 33,3.55229717 33,3 C33,2.44770283 32.6500094,2 32.2181177,2 L15.7819915,2 C15.3500998,2 15,2.44770283 15,3 C15,3.55229717 15.3500998,4 15.7819915,4 Z" id="Shape"></path>
            <path d="M1.78199147,12 L18.2180085,12 C18.6499002,12 19,11.5522659 19,10.9999302 C19,10.4475944 18.6499002,10 18.2180085,10 L1.78199147,10 C1.3500998,10 1,10.4475944 1,10.9999302 C1,11.5522659 1.3500998,12 1.78199147,12 Z" id="Shape"></path>
            <path d="M6,19.9998604 C6,20.5521575 6.3500998,21 6.78199147,21 L23.2180085,21 C23.6499002,21 24,20.5521575 24,19.9998604 C24,19.4475632 23.6499002,19 23.2180085,19 L6.78199147,19 C6.3500998,19 6,19.4475632 6,19.9998604 Z" id="Shape"></path>
            <path d="M15.2338974,29 L0.766102556,29 C0.342986286,29 0,29.4475944 0,29.9999302 C0,30.5522659 0.342986286,31 0.766102556,31 L15.2338974,31 C15.6570137,31 16,30.5522659 16,29.9999302 C16,29.4475944 15.6570137,29 15.2338974,29 Z" id="Shape"></path>
            <path d="M40.0004091,9 C42.2092803,9 44,6.98513301 44,4.49994248 C44,2.01475194 42.2091781,0 40.0004091,0 C37.7910265,0 36,2.01486699 36,4.49994248 C35.9998977,6.98513301 37.7909242,9 40.0004091,9 Z" id="Shape"></path>
            <path d="M46.1381664,7.01003244 C43.8402357,10.5243045 40.7631633,10.9312625 37.4519904,8.78509784 C37.2265867,8.63920511 36.2265433,8.03764896 36.00513,7.89399043 C30.6784204,4.4414938 25.3579521,5.79541405 21.789862,11.2508636 C20.2736308,13.5711836 23.7804333,15.770522 25.2796799,13.4772358 C27.1232221,10.6585794 29.4674,9.84298767 32.0311494,10.7357707 C30.7184262,13.2235433 29.5707398,15.6962351 27.9512711,19.2092783 C26.3313932,22.7223216 22.754913,25.5277962 19.3184021,23.3335965 C16.838757,21.7512301 14.6026256,25.6405112 17.0748016,27.2179624 C21.7664314,30.2116677 27.2674887,28.3733747 30.075775,24.4818593 C30.1731805,24.5387195 30.2761111,24.5899942 30.3890688,24.6331141 C32.6832138,25.5057895 35.6905061,27.8291255 36.6068545,28.6525369 C37.5228958,29.4759483 39.0968336,33.6706435 40.0314966,35.7782683 C41.1653703,38.335636 44.8271825,36.4729903 43.6891139,33.9047868 C42.6296245,31.5135313 40.851258,26.7409624 39.4641505,25.5334934 C38.3514565,24.565083 36.191244,22.7627604 34.3590589,21.7402826 C35.5986257,19.1189053 36.8892485,16.5257905 38.247912,13.9774714 C42.5787731,15.426233 46.6952808,13.7196456 49.6270634,9.23584604 C51.1445224,6.91586125 47.6385384,4.71652282 46.1381664,7.01003244 Z" id="Shape"></path>
        </g>
    </g>
</svg>