<?xml version="1.0" encoding="UTF-8"?>
<svg width="56px" height="265px" viewBox="0 0 56 265" version="1.1" xmlns="http://www.w3.org/2000/svg" xmlns:xlink="http://www.w3.org/1999/xlink">
    <!-- Generator: Sketch 51.2 (57519) - http://www.bohemiancoding.com/sketch -->
    <title>Top drawer</title>
    <desc>Created with Sketch.</desc>
    <defs></defs>
    <g id="Top-drawer" stroke="none" stroke-width="1" fill="none" fill-rule="evenodd">
        <g id="video" transform="translate(12.000000, 115.000000)">
            <g id="Group-3">
                <g id="Group-11">
                    <g id="Video">
                        <ellipse id="Ellipse_1-3" fill="#E10000" fill-rule="nonzero" cx="16" cy="15.6979512" rx="16" ry="15.6097561"></ellipse>
                        <rect id="Rectangle-2" fill="#FFFFFF" x="8" y="10.1463415" width="16.8" height="11.7073171" rx="2"></rect>
                        <g id="baseline-play_arrow-24px" transform="translate(6.400000, 7.024390)">
                            <polygon id="Shape" fill="#E10000" fill-rule="nonzero" points="8 5.46341463 8 11.7073171 12.8 8.58536585"></polygon>
                            <polygon id="Shape" points="0 0 19.2 0 19.2 18.7317073 0 18.7317073"></polygon>
                        </g>
                    </g>
                </g>
            </g>
        </g>
        <g id="Group-9" transform="translate(12.000000, 13.000000)">
            <g id="lol">
                <ellipse id="Ellipse_1" fill="#FF9300" fill-rule="nonzero" cx="16" cy="15.6097561" rx="16" ry="15.6097561"></ellipse>
                <g id="baseline-mood-24px" transform="translate(5.333333, 5.333333)">
                    <polygon id="Shape" points="0 0 21.3333333 0 21.3333333 20.8130081 0 20.8130081"></polygon>
                    <path d="M10.6577778,1.73441734 C5.75111111,1.73441734 1.77777778,5.6195122 1.77777778,10.4065041 C1.77777778,15.1934959 5.75111111,19.0785908 10.6577778,19.0785908 C15.5733333,19.0785908 19.5555556,15.1934959 19.5555556,10.4065041 C19.5555556,5.6195122 15.5733333,1.73441734 10.6577778,1.73441734 Z M10.6666667,17.3441734 C6.73777778,17.3441734 3.55555556,14.2395664 3.55555556,10.4065041 C3.55555556,6.57344173 6.73777778,3.46883469 10.6666667,3.46883469 C14.5955556,3.46883469 17.7777778,6.57344173 17.7777778,10.4065041 C17.7777778,14.2395664 14.5955556,17.3441734 10.6666667,17.3441734 Z M13.7777778,9.53929539 C14.5155556,9.53929539 15.1111111,8.95826558 15.1111111,8.23848238 C15.1111111,7.51869919 14.5155556,6.93766938 13.7777778,6.93766938 C13.04,6.93766938 12.4444444,7.51869919 12.4444444,8.23848238 C12.4444444,8.95826558 13.04,9.53929539 13.7777778,9.53929539 Z M7.55555556,9.53929539 C8.29333333,9.53929539 8.88888889,8.95826558 8.88888889,8.23848238 C8.88888889,7.51869919 8.29333333,6.93766938 7.55555556,6.93766938 C6.81777778,6.93766938 6.22222222,7.51869919 6.22222222,8.23848238 C6.22222222,8.95826558 6.81777778,9.53929539 7.55555556,9.53929539 Z M10.6666667,15.1761518 C12.7377778,15.1761518 14.4977778,13.9100271 15.2088889,12.1409214 L6.12444444,12.1409214 C6.83555556,13.9100271 8.59555556,15.1761518 10.6666667,15.1761518 Z" id="Shape" fill="#FFFFFF" fill-rule="nonzero"></path>
                </g>
            </g>
        </g>
        <g id="cricket" transform="translate(12.000000, 64.000000)">
            <g id="Group-3">
                <g id="Group-10" fill-rule="nonzero">
                    <g id="Cricket">
                        <g id="Group-6">
                            <ellipse id="Ellipse_1-4" fill="#5BAB00" cx="16" cy="15.6979512" rx="16" ry="15.6097561"></ellipse>
                            <g id="cricket" transform="translate(8.736800, 5.952780)" fill="#FFFFFF">
                                <g id="Group_2031" transform="translate(0.063200, 0.000000)">
                                    <path d="M14.1496,0.0195121951 C13.3856,0.72195122 9.8496,3.95863415 9.8496,3.95863415 L10.196,4.30985366 L9.876,4.61346341 C9.49746299,4.36896562 8.99444046,4.42033117 8.676,4.736 C7.96082604,5.38216223 7.12031614,5.88212928 6.204,6.20643902 L6.028,6.0035122 C7.0608,5.47902439 8.9256,4.39570732 8.9696,4.36995122 L8.9344,4.35746341 L8.836,4.32156098 C8.79678431,4.30925339 8.75666962,4.29986069 8.716,4.29346341 C8.55895129,4.27536625 8.39974633,4.29464759 8.252,4.34965854 C7.29619807,4.72686082 6.32164587,5.05716011 5.332,5.33931707 C4.1024,4.65873171 2.532,6.46946341 3.6304,7.75882927 C4.70056022,8.88881528 5.66743933,10.1078931 6.52,11.4021463 C6.0624,12.1475122 4.9952,12.5502439 4.328,13.0801951 C3.028,14.113561 2.8416,15.8228293 2.3144,17.2620488 C1.8792,18.4499512 3.8112,18.9549268 4.2424,17.7802927 C4.7624,16.3605854 4.8728,14.9861463 6.268,14.1018537 C6.428,14.0027317 6.58,13.9028293 6.732,13.8029268 C6.48868691,14.5465685 6.40321547,15.330776 6.4808,16.1077073 C6.63801848,17.0902839 6.89721771,18.0547218 7.2544,18.9861463 C7.6824,20.163122 9.6152,19.6558049 9.1824,18.4679024 C8.89100384,17.678537 8.65735115,16.870005 8.4832,16.0483902 C8.2048,14.7129756 8.9424,13.3611707 9.1616,12.0171707 C9.57707999,11.5653231 9.65710286,10.9076522 9.3616,10.3734634 C8.85431095,9.43708306 8.24347222,8.55769828 7.54,7.75102439 C8.47650158,7.35105668 9.33648776,6.79866604 10.0832,6.11746341 C10.3727823,5.87546744 10.4696787,5.47905851 10.3232,5.13560976 L10.676,4.80390244 L11.0224,5.15512195 L15.3232,1.216 C15.3232,1.216 15.5408,-0.177170732 14.1496,0.0195121951 Z" id="Path_688"></path>
                                    <path d="M3.8464,5.00526829 C3.94131022,4.89772404 4.01972683,4.77731565 4.0792,4.64780488 L4.22,4.62907317 C4.22982073,4.62803337 4.23933525,4.62511602 4.248,4.6204878 C4.33928317,4.57759368 4.42087603,4.51736091 4.488,4.44331707 C4.9472,3.92429268 4.4656,2.91278049 4.4416,2.86439024 C4.42107143,2.82279948 4.37007214,2.80505455 4.3272,2.82458537 L3.8176,3.05873171 C3.77862793,3.0171498 3.73722559,2.97779966 3.6936,2.94087805 C3.62646423,2.8849235 3.55445857,2.83478264 3.4784,2.79102439 L3.9584,2.25014634 L3.74,2.06907317 L3.2112,2.6684878 C2.49720544,2.42015756 1.70545965,2.72992768 1.36517561,3.39074387 C1.02489158,4.05156005 1.24278436,4.85618648 1.87321165,5.26680058 C2.50363893,5.67741468 3.34889504,5.56524548 3.844,5.00526829 L3.8464,5.00526829 Z M4.1824,4.46517073 L4.1464,4.46985366 C4.20282924,4.2852871 4.22158362,4.09171054 4.2016,3.90009756 L4.5064,3.81736585 C4.53821627,4.07643546 4.41142183,4.32964254 4.1824,4.46439024 L4.1824,4.46517073 Z M4.3152,3.0142439 C4.40129497,3.21797188 4.46095722,3.43139783 4.4928,3.64956098 C4.48589018,3.64877318 4.47890982,3.64877318 4.472,3.64956098 L4.1736,3.72760976 C4.12967479,3.53206361 4.04498621,3.34742378 3.9248,3.18517073 L4.3152,3.0142439 Z" id="Path_689"></path>
                                    <path d="M0.3456,11.0251707 C0.253802404,11.0251705 0.165776236,11.0608009 0.100940618,11.1242015 C0.0361050001,11.1876022 -0.000212494436,11.2735636 5.55109395e-17,11.363122 L5.55109395e-17,18.0542439 C-6.55031754e-16,18.2408892 0.155088563,18.3921951 0.3464,18.3921951 C0.537711437,18.3921951 0.6928,18.2408892 0.6928,18.0542439 L0.6928,11.3654634 C0.693440625,11.2752927 0.657118005,11.1886117 0.591912546,11.1247034 C0.526707087,11.0607952 0.438026913,11.0249603 0.3456,11.0251707 Z" id="Path_690"></path>
                                    <path d="M1.7176,11.0251707 C1.6258024,11.0251705 1.53777624,11.0608009 1.47294062,11.1242015 C1.408105,11.1876022 1.37178751,11.2735636 1.372,11.363122 L1.372,18.0542439 C1.37199949,18.2405848 1.52660106,18.3917648 1.7176,18.3921951 C1.78710633,18.3923697 1.85498185,18.3716589 1.912,18.332878 C1.75754891,18.0051711 1.74571617,17.6304089 1.8792,17.2940488 C1.9456,17.1145366 2.0048,16.9303415 2.0632,16.7414634 L2.0632,11.363122 C2.06341249,11.2735636 2.027095,11.1876022 1.96225938,11.1242015 C1.89742376,11.0608009 1.8093976,11.0251705 1.7176,11.0251707 Z" id="Path_691"></path>
                                    <path d="M2.7392,11.363122 L2.7392,14.691122 C2.91412821,14.2691275 3.1472076,13.8723686 3.432,13.5118049 L3.432,11.363122 C3.432,11.1764766 3.27691144,11.0251707 3.0856,11.0251707 C2.89428856,11.0251707 2.7392,11.1764766 2.7392,11.363122 Z" id="Path_692"></path>
                                    <path d="M0.5312,11.0251707 L1.4176,11.0251707 C1.51966222,11.0251707 1.6024,10.9444509 1.6024,10.844878 C1.6024,10.7453051 1.51966222,10.6645854 1.4176,10.6645854 L0.5312,10.6645854 C0.429137778,10.6645854 0.3464,10.7453051 0.3464,10.844878 C0.3464,10.9444509 0.429137778,11.0251707 0.5312,11.0251707 Z" id="Path_693"></path>
                                    <path d="M2.9016,10.6614634 L2.0152,10.6614634 C1.91313778,10.6614634 1.8304,10.7421832 1.8304,10.8417561 C1.8304,10.941329 1.91313778,11.0220488 2.0152,11.0220488 L2.9016,11.0220488 C3.00366222,11.0220488 3.0864,10.941329 3.0864,10.8417561 C3.0864,10.7421832 3.00366222,10.6614634 2.9016,10.6614634 Z" id="Path_694"></path>
                                    <path d="M14.3744,5.04741463 C14.3744,5.13639024 14.3568,5.24331707 14.3472,5.36663415 C14.3376,5.48995122 14.3088,5.62731707 14.2712,5.77560976 C14.2328883,5.93405255 14.1858874,6.09037496 14.1304,6.24390244 C14.096,6.32195122 14.0624,6.40702439 14.0264,6.49131707 L13.9008,6.74185366 C13.7061398,7.08938239 13.4639183,7.40945615 13.1808,7.69326829 C12.6457466,8.21841294 12.017428,8.64444093 11.3264,8.95063415 C11.1006825,9.05342624 10.8697129,9.14486327 10.6344,9.22458537 C10.4632,9.28156098 10.3672,9.30263415 10.3672,9.30263415 L10.4216,9.49073171 C10.4216,9.49073171 10.5272,9.46029268 10.6992,9.39707317 C10.9377846,9.30869005 11.1714406,9.20812845 11.3992,9.09580488 C12.0953942,8.76265308 12.723736,8.30884109 13.2536,7.7564878 C13.3951344,7.60543447 13.5258434,7.44505541 13.6448,7.2764878 C13.7596162,7.1135786 13.8630505,6.94330676 13.9544,6.76682927 L14.0744,6.5084878 C14.108,6.42185366 14.14,6.33756098 14.1712,6.25482927 C14.2234398,6.09767013 14.26618,5.93765515 14.2992,5.77560976 C14.332,5.6257561 14.3472,5.48604878 14.3624,5.36273171 C14.3776,5.23941463 14.3816,5.12858537 14.3808,5.04117073 C14.3808,4.86243902 14.3808,4.76097561 14.3808,4.76097561 C14.3808,4.76097561 14.38,4.86946341 14.3744,5.04741463 Z" id="Path_695"></path>
                                </g>
                            </g>
                        </g>
                    </g>
                </g>
            </g>
        </g>
        <g id="Technology" transform="translate(12.000000, 164.000000)">
            <g id="Group">
                <g id="Group-3-Copy" fill="#7D008E" fill-rule="nonzero">
                    <g id="Group-2">
                        <g id="Group-11-Copy-2">
                            <circle id="Ellipse_1-3" cx="16" cy="16" r="16"></circle>
                        </g>
                    </g>
                </g>
                <g id="mobile-phone-and-computer-screen" transform="translate(7.200000, 8.000000)" fill="#FFFFFF" fill-rule="nonzero">
                    <path d="M6.91151158,2.4 L1.08872312,2.4 C0.488385624,2.4 0,2.88492391 0,3.48161275 L0,14.9187448 C0,15.5149966 0.488385624,16 1.08872312,16 L6.9112768,16 C7.51177081,16 7.99999992,15.5149966 7.99999992,14.9187448 L7.99999992,3.48161275 C8.0002347,2.8852815 7.51208386,2.4 6.91151158,2.4 Z M7.27839754,14.9187448 C7.27839754,15.1108073 7.11377625,15.2671113 6.91151158,15.2671113 L1.08872312,15.2671113 C0.886419321,15.2671113 0.721837161,15.1108073 0.721837161,14.9187448 L0.721837161,13.1905006 L7.27843667,13.1905006 L7.27843667,14.9187448 L7.27839754,14.9187448 Z M7.27839754,3.94742577 L0.721837161,3.94742577 L0.721837161,3.48161275 C0.721837161,3.28931191 0.886654103,3.13292842 1.08872312,3.13292842 L6.9112768,3.13292842 C7.11381538,3.13292842 7.27820188,3.28935164 7.27820188,3.48161275 L7.27820188,3.94742577 L7.27839754,3.94742577 Z" id="Shape"></path>
                    <circle id="Oval" cx="4" cy="13.6" r="1"></circle>
                    <path d="M16.4677469,0 L5.93206267,0 C5.30807643,0 4.8,0.54688357 4.8,1.2191288 L4.8,2.12212641 L5.73656958,2.12212641 L5.73656958,1.2191288 C5.73656958,1.10315799 5.82437774,1.00859339 5.93206267,1.00859339 L16.4677469,1.00859339 C16.5756603,1.00859339 16.6630116,1.10315799 16.6630116,1.2191288 L16.6630116,8.53086699 C16.6630116,8.64687881 16.5756603,8.74144341 16.4677469,8.74144341 L8.31906613,8.74144341 L8.31906613,9.75007781 L10.7317723,9.75007781 L10.7317723,10.1913656 L9.35623812,10.1913656 C9.09783996,10.1913656 8.88806756,10.4176891 8.88806756,10.6956828 C8.88806756,10.9736765 9.09783996,11.2 9.35623812,11.2 L13.0146321,11.2 C13.2729922,11.2 13.4829169,10.9736765 13.4829169,10.6956828 C13.4829169,10.4176891 13.2729922,10.1913656 13.0146321,10.1913656 L11.6683419,10.1913656 L11.6683419,9.75007781 L16.4677469,9.75007781 C17.0919997,9.75007781 17.6,9.20315323 17.6,8.530908 L17.6,1.21916981 C17.6000381,0.54688357 17.0919997,0 16.4677469,0 Z" id="Shape"></path>
                </g>
            </g>
        </g>
        <g id="Group" transform="translate(12.000000, 215.000000)" fill-rule="nonzero">
            <g id="Group-3-Copy-2" fill="#00327D">
                <g id="Group-2">
                    <g id="Group-11-Copy-2">
                        <circle id="Ellipse_1-3" cx="16" cy="16" r="16"></circle>
                    </g>
                </g>
            </g>
            <g id="horoscope" transform="translate(8.000000, 7.000000)" fill="#FFFFFF">
                <path d="M16.4624269,12.7597979 L14.4197454,9.34360238 L16.4264686,5.99224007 C16.6041776,5.69551699 16.6104252,5.32309636 16.4429206,5.02037674 C16.2754854,4.71765712 15.9592189,4.5295773 15.6174762,4.5295773 L11.5412068,4.5295773 L9.10937029,0.462580438 C8.93610402,0.172912116 8.63351281,-7.05259997e-05 8.29996136,2.15702692e-08 C7.96647933,2.15702692e-08 7.66388812,0.172982663 7.49076069,0.462650985 L7.4908301,0.462650985 L5.05892419,4.5295773 L0.982724181,4.5295773 C0.640912041,4.5295773 0.324576151,4.71772767 0.157210377,5.02044729 C-0.0102248144,5.32323746 -0.0039772326,5.69565808 0.17373176,5.99231061 L2.1803856,9.34360238 L0.137634621,12.7597274 C-0.0399355365,13.0564504 -0.0460442831,13.4288005 0.121390908,13.731379 C0.288826099,14.0339576 0.605161989,14.2219668 0.946835294,14.2219668 L5.10133833,14.2219668 L7.49096894,18.2129134 C7.66423521,18.5022995 7.96668758,18.675 8.29996136,18.675 C8.63330456,18.675 8.93575693,18.5022995 9.1090232,18.2129134 L11.4987232,14.2219668 L15.6532263,14.2219668 C15.9948996,14.2219668 16.311166,14.0339576 16.4786012,13.731379 C16.6460364,13.4288005 16.6399277,13.0564504 16.4624269,12.7597979 Z M15.3491079,5.64521657 L13.7776328,8.26972727 L12.2083097,5.64521657 L15.3491079,5.64521657 Z M8.30003078,1.25751046 L10.2565651,4.52950675 L6.34349642,4.52950675 L8.30003078,1.25751046 Z M1.25088427,5.64521657 L4.39168246,5.64521657 L2.82235934,8.26965672 L1.25088427,5.64521657 Z M1.21492597,13.1063276 L2.8229841,10.4170542 L4.43319417,13.1063276 L1.21492597,13.1063276 Z M8.30003078,17.4179129 L6.3864659,14.2220374 L10.2136651,14.2220374 L8.30003078,17.4179129 Z M10.8816704,13.1063276 L5.71839116,13.1063276 L3.46516609,9.34324964 L5.67639352,5.64528712 L10.923668,5.64528712 L13.1348955,9.34324964 L10.8816704,13.1063276 Z M12.1667285,13.1063276 L13.7769386,10.4170542 L15.3849968,13.1063276 L12.1667285,13.1063276 Z" id="Shape"></path>
                <path d="M7.95419749,7.60833333 C7.00069114,7.60833333 6.225,8.38402447 6.225,9.33753083 C6.225,10.2909755 7.00069114,11.0666667 7.95419749,11.0666667 C8.90764219,11.0666667 9.68333333,10.2909755 9.68333333,9.33753083 C9.68333333,8.38402447 8.90764219,7.60833333 7.95419749,7.60833333 Z M7.95419749,10.0915191 C7.53839104,10.0915191 7.20008587,9.75327563 7.20008587,9.33746917 C7.20008587,8.92166271 7.53839104,8.58335755 7.95419749,8.58335755 C8.37000395,8.58335755 8.70824746,8.92166271 8.70824746,9.33746917 C8.70824746,9.75333729 8.37000395,10.0915191 7.95419749,10.0915191 Z" id="Shape"></path>
            </g>
        </g>
    </g>
</svg>