<?xml version="1.0" encoding="UTF-8"?>
<svg width="77px" height="181px" viewBox="0 0 77 181" version="1.1" xmlns="http://www.w3.org/2000/svg" xmlns:xlink="http://www.w3.org/1999/xlink">
    <!-- Generator: Sketch 51.2 (57519) - http://www.bohemiancoding.com/sketch -->
    <title>dwarer icons</title>
    <desc>Created with Sketch.</desc>
    <defs></defs>
    <g id="dwarer-icons" stroke="none" stroke-width="1" fill="none" fill-rule="evenodd">
        <g id="bell-(1)" transform="translate(22.000000, 59.000000)" fill="#545454" fill-rule="nonzero">
            <path d="M30,25.0137686 L29.6484122,24.82672 C26.3401418,23.066122 25.7748922,20.6984963 25.6884833,19.8277777 L25.7063397,12.0738553 C25.2644434,7.20147635 21.7543127,3.37008628 17.1863401,2.4135075 L17.1863401,2.2051233 C17.1864428,0.987132128 16.2062867,0 15.0000513,0 C13.7923792,0 12.8142756,0.987132128 12.8142756,2.20522687 L12.8142756,2.39165409 C7.87891123,3.39608252 4.14855079,7.80384341 4.14855079,13.0776623 C4.14855079,13.4018385 4.19339721,19.2566889 4.19739952,19.7698816 C4.07343046,20.9753408 3.40524953,23.2011782 0.351587755,24.82672 L0,25.0137686 L0,30.2736055 L10.4881111,30.2736055 C11.056029,31.8477762 12.8604561,33 15.0000513,33 C17.1389281,33 18.9434579,31.8491226 19.5113758,30.2736055 L29.9994869,30.2736055 L30,25.0137686 Z M28.6808789,28.942308 L1.31912113,28.942308 L1.31912113,25.8091914 C4.64781361,23.8914768 5.37797907,21.278285 5.51313408,19.8630953 L5.51641803,19.79391 C5.51641803,19.79391 5.4675693,13.4158206 5.4675693,13.0763159 C5.4675693,7.79856131 9.72161693,3.50586744 14.9504842,3.50586744 C19.8852328,3.50586744 23.9439882,7.24010822 24.3905025,12.1297835 L24.3739802,19.8870201 C24.479477,21.0025799 25.1172814,23.7603563 28.6814946,25.807845 L28.6814946,28.942308 L28.6808789,28.942308 Z" id="Shape"></path>
        </g>
        <g id="cellphone-(1)" transform="translate(26.000000, 8.000000)" fill="#545454" fill-rule="nonzero">
            <path d="M18.5625,0 L3.4375,0 C1.54,0.00222083333 0.002234375,1.53066667 0,3.41666667 L0,37.5833333 C0.002234375,39.4693333 1.54,40.9977792 3.4375,41 L18.5625,41 C20.46,40.9977792 21.9977656,39.4693333 22,37.5833333 L22,3.41666667 C21.9977656,1.53066667 20.46,0.00222083333 18.5625,0 Z M8.267875,39.6333333 L3.4375,39.6333333 C2.29839844,39.6333333 1.375,38.7155312 1.375,37.5833333 L1.375,35.5333333 L8.267875,35.5333333 C7.32763281,36.7402708 7.32763281,38.4263958 8.267875,39.6333333 Z M11,39.6333333 C9.86089844,39.6333333 8.9375,38.7155312 8.9375,37.5833333 C8.9375,36.4511354 9.86089844,35.5333333 11,35.5333333 C12.1391016,35.5333333 13.0625,36.4511354 13.0625,37.5833333 C13.0625,38.7155312 12.1391016,39.6333333 11,39.6333333 Z M20.625,37.5833333 C20.625,38.7155312 19.7016016,39.6333333 18.5625,39.6333333 L13.732125,39.6333333 C14.6723672,38.4263958 14.6723672,36.7402708 13.732125,35.5333333 L20.625,35.5333333 L20.625,37.5833333 Z M20.625,34.1666667 L1.375,34.1666667 L1.375,7.51666667 L20.625,7.51666667 L20.625,34.1666667 Z M20.625,6.15 L1.375,6.15 L1.375,3.41666667 C1.375,2.28446875 2.29839844,1.36666667 3.4375,1.36666667 L18.5625,1.36666667 C19.7016016,1.36666667 20.625,2.28446875 20.625,3.41666667 L20.625,6.15 Z" id="Shape"></path>
            <rect id="Rectangle-path" x="6.16" y="3.4893617" width="7.04" height="1.74468085"></rect>
            <rect id="Rectangle-path" x="14.96" y="3.4893617" width="1.76" height="1.74468085"></rect>
        </g>
        <g id="NBT_icon" transform="translate(9.000000, 102.000000)">
            <rect id="Rectangle_2" fill="#ED1C24" fill-rule="nonzero" x="0" y="0" width="17" height="18"></rect>
            <rect id="Rectangle_3" fill="#ED1C24" fill-rule="nonzero" x="20" y="0" width="17" height="18"></rect>
            <rect id="Rectangle_4" fill="#ED1C24" fill-rule="nonzero" x="39" y="0" width="17" height="18"></rect>
            <polygon id="Path_43" fill="#FFFFFF" fill-rule="nonzero" points="2 2 6.22889607 2 11.726424 10.2977828 11.726424 2 16 2 16 17 11.726424 17 6.25113329 8.77050239 6.25113329 17 2 17"></polygon>
            <polygon id="Path_44" stroke="#000000" stroke-width="0.5" points="2 2 6.22889607 2 11.726424 10.2977828 11.726424 2 16 2 16 17 11.726424 17 6.25113329 8.77050239 6.25113329 17 2 17"></polygon>
            <path d="M22,2 L30.7730481,2 C32.22372,2 33.3520156,2.36475085 34.1348869,3.07143459 C34.9177581,3.77811832 35.3092363,4.66717748 35.3092363,5.73844366 C35.3092363,6.62750282 35.0328287,7.37978041 34.4802688,8.0180944 C34.1118387,8.45121499 33.5591937,8.77037199 32.8453819,9.02111715 C33.9276237,9.27186232 34.7334581,9.72780089 35.2401344,10.3661149 C35.7468107,11.0044289 36,11.8023003 36,12.7369533 C36,13.5120489 35.815785,14.2188589 35.4471849,14.8342287 C35.0829443,15.4456438 34.567914,15.955531 33.9503317,16.3161342 C33.5588961,16.5441035 32.9601973,16.703661 32.1772836,16.7948487 C31.1180473,16.9316303 30.4272836,17 30.0818592,17 L22,17 L22,2 Z M26.7204031,7.88131283 L28.7467256,7.88131283 C29.4835856,7.88131283 29.9901344,7.74453126 30.2664569,7.51656198 C30.5428644,7.26581682 30.7039462,6.90106596 30.7039462,6.44512739 C30.7039462,6.0120068 30.565785,5.67003183 30.2664569,5.41928666 C29.9671288,5.1685415 29.4835431,5.05453581 28.7696037,5.05453581 L26.6973975,5.05453581 L26.6973975,7.88131283 L26.7204031,7.88131283 Z M26.7204031,13.7855699 L29.1151556,13.7855699 C29.921075,13.7855699 30.4967256,13.6487884 30.8191019,13.3524494 C31.1414781,13.078802 31.3256931,12.6914858 31.3256931,12.212645 C31.3256931,11.7795244 31.1645263,11.4147736 30.84215,11.1412104 C30.5197738,10.8676473 29.9441232,10.7308657 29.1151556,10.7308657 L26.7434513,10.7308657 L26.7434513,13.7855699 L26.7204031,13.7855699 Z" id="Path_45" fill="#FFFFFF" fill-rule="nonzero"></path>
            <path d="M22,2 L30.7730481,2 C32.22372,2 33.3520156,2.36475085 34.1348869,3.07143459 C34.9177581,3.77811832 35.3092363,4.66717748 35.3092363,5.73844366 C35.3092363,6.62750282 35.0328287,7.37978041 34.4802688,8.0180944 C34.1118387,8.45121499 33.5591937,8.77037199 32.8453819,9.02111715 C33.9276237,9.27186232 34.7334581,9.72780089 35.2401344,10.3661149 C35.7468107,11.0044289 36,11.8023003 36,12.7369533 C36,13.5120489 35.815785,14.2188589 35.4471849,14.8342287 C35.0829443,15.4456438 34.567914,15.955531 33.9503317,16.3161342 C33.5588961,16.5441035 32.9601973,16.703661 32.1772836,16.7948487 C31.1180473,16.9316303 30.4272836,17 30.0818592,17 L22,17 L22,2 Z M26.7204031,7.88131283 L28.7467256,7.88131283 C29.4835856,7.88131283 29.9901344,7.74453126 30.2664569,7.51656198 C30.5428644,7.26581682 30.7039462,6.90106596 30.7039462,6.44512739 C30.7039462,6.0120068 30.565785,5.67003183 30.2664569,5.41928666 C29.9671288,5.1685415 29.4835431,5.05453581 28.7696037,5.05453581 L26.6973975,5.05453581 L26.6973975,7.88131283 L26.7204031,7.88131283 Z M26.7204031,13.7855699 L29.1151556,13.7855699 C29.921075,13.7855699 30.4967256,13.6487884 30.8191019,13.3524494 C31.1414781,13.078802 31.3256931,12.6914858 31.3256931,12.212645 C31.3256931,11.7795244 31.1645263,11.4147736 30.84215,11.1412104 C30.5197738,10.8676473 29.9441232,10.7308657 29.1151556,10.7308657 L26.7434513,10.7308657 L26.7434513,13.7855699 L26.7204031,13.7855699 Z" id="Path_46" stroke="#000000" stroke-width="0.5"></path>
            <polygon id="Path_47" fill="#FFFFFF" fill-rule="nonzero" points="41 2 55 2 55 5.71581532 50.3106861 5.71581532 50.3106861 17 45.6893139 17 45.6893139 5.71581532 41 5.71581532"></polygon>
            <polygon id="Path_48" stroke="#000000" stroke-width="0.5" points="41 2 55 2 55 5.71581532 50.3106861 5.71581532 50.3106861 17 45.6893139 17 45.6893139 5.71581532 41 5.71581532"></polygon>
        </g>
        <g id="message" transform="translate(19.000000, 130.000000)" fill="#6F6F6F" fill-rule="nonzero">
            <path d="M35.4756255,0 L1.52437446,0 C0.682476812,0 0,0.688229376 0,1.53722334 L0,22.4627767 C0,23.3117706 0.682476812,24 1.52437446,24 L35.4756255,24 C36.3175232,24 37,23.3117706 37,22.4627767 L37,1.53722334 C37,0.688229376 36.3175232,0 35.4756255,0 Z M1.52437446,1.20724346 L35.4756255,1.20724346 C35.6188848,1.20794769 35.7449849,1.30251509 35.7868852,1.44064386 L18.5,12.3299799 L1.21311475,1.44064386 C1.2550151,1.30251509 1.38111519,1.20794769 1.52437446,1.20724346 Z M1.19715272,2.81690141 L13.6315789,10.6478873 L1.19715272,20.5955734 L1.19715272,2.81690141 Z M35.8028473,22.4547284 C35.8028473,22.6370221 35.6562958,22.7847082 35.4756255,22.7847082 L1.52437446,22.7847082 C1.34370416,22.7847082 1.19715272,22.6369215 1.19715272,22.4547284 L1.19715272,22.1327968 L14.7090164,11.3641851 L18.1807593,13.5533199 C18.3757954,13.6773642 18.6242046,13.6773642 18.8192407,13.5533199 L22.2909836,11.3641851 L35.8028473,22.1327968 L35.8028473,22.4547284 Z M35.8028473,20.5955734 L23.336497,10.6800805 L35.8028473,2.88933602 L35.8028473,20.5955734 Z" id="Shape"></path>
        </g>
    </g>
</svg>