<svg xmlns="http://www.w3.org/2000/svg" viewBox="1440 -774 22.1 22.1">
  <defs>
    <style>
      .cls-1 {
        fill: #f0f0f0;
      }

      .cls-2 {
        fill: #95989a;
      }
    </style>
  </defs>
  <g id="twitter" transform="translate(1255 -1432)">
    <circle id="Ellipse_2" data-name="Ellipse 2" class="cls-1" cx="11.05" cy="11.05" r="11.05" transform="translate(185 658)"/>
    <path id="twitter-2" data-name="twitter" class="cls-2" d="M10.6,35.533a4.264,4.264,0,0,1-.742.25,2.315,2.315,0,0,0,.611-.973h0a.121.121,0,0,0-.178-.141h0a4.285,4.285,0,0,1-1.135.469.289.289,0,0,1-.071.009.3.3,0,0,1-.2-.076,2.322,2.322,0,0,0-1.536-.58,2.482,2.482,0,0,0-.736.114A2.249,2.249,0,0,0,5.1,36.225a2.477,2.477,0,0,0-.055.855.083.083,0,0,1-.021.065.086.086,0,0,1-.064.029H4.948A6.088,6.088,0,0,1,.764,34.938h0a.121.121,0,0,0-.2.016h0a2.324,2.324,0,0,0,.378,2.822,2.08,2.08,0,0,1-.53-.2h0a.121.121,0,0,0-.18.1h0a2.325,2.325,0,0,0,1.356,2.142h-.05a2.088,2.088,0,0,1-.391-.037h0a.121.121,0,0,0-.138.156h0A2.327,2.327,0,0,0,2.847,41.52a4.284,4.284,0,0,1-2.4.729H.18a.178.178,0,0,0-.174.134.184.184,0,0,0,.088.2,6.372,6.372,0,0,0,3.2.863,6.46,6.46,0,0,0,2.736-.58,6.042,6.042,0,0,0,2-1.5,6.577,6.577,0,0,0,1.23-2.051,6.486,6.486,0,0,0,.417-2.247v-.035a.4.4,0,0,1,.148-.307,4.589,4.589,0,0,0,.923-1.013h0a.121.121,0,0,0-.15-.178Z" transform="translate(191 630.509)"/>
  </g>
</svg>
