<svg xmlns="http://www.w3.org/2000/svg" viewBox="0 0 32 32">
  <g fill="none" fill-rule="evenodd">
    <path d="M15.543.914C7.463.914.914 7.464.914 15.543S7.464 30.17 15.543 30.17 30.17 23.622 30.17 15.543A14.629 14.629 0 0015.543.914z" fill="#C60067" fill-rule="nonzero"/>
    <path d="M17.88 24.346H9.783a1.09 1.09 0 01-1.097-1.081V7.482A1.089 1.089 0 019.783 6.4h8.1a1.09 1.09 0 011.098 1.082v3.947h-.613V7.482a.486.486 0 00-.49-.483H9.784a.486.486 0 00-.49.483v15.783a.486.486 0 00.49.482h8.1a.486.486 0 00.49-.483v-4.521h.604v4.522a1.088 1.088 0 01-1.097 1.08zm-3.675-.897h-.751a.83.83 0 01-.835-.823v-.145a.831.831 0 01.835-.823h.751a.831.831 0 01.835.823v.145a.831.831 0 01-.836.823h.001zm-.75-1.197c-.126 0-.229.1-.23.227v.144a.229.229 0 00.23.226h.751c.126 0 .228-.1.229-.226v-.144a.229.229 0 00-.23-.227h-.75zm4.008-14.357h-.302a.299.299 0 010-.598h.302a.299.299 0 110 .598zm-2.118 0h-3.028a.299.299 0 010-.598h3.026a.299.299 0 110 .598h.002z" fill="#FFF" fill-rule="nonzero"/>
    <g fill="#FFF" fill-rule="nonzero">
      <path d="M24.967 17.274l-2.682 1.408v-.957h-6.636v-2.08h1.031v1.178h5.605v-.956zM15.26 11.78v.957h6.601v2.08h-1.044v-1.179H15.26v.958l-2.716-1.408z"/>
    </g>
    <path d="M8.686 20.114h10.057v1H8.686z"/>
    <path stroke="#FFF" stroke-width=".5" d="M8.915 20.364h9.6v1h-9.6z"/>
    <g>
      <path d="M8.686 8.229h10.057v1H8.686z"/>
      <path stroke="#FFF" stroke-width=".5" d="M8.915 8.479h9.6v1h-9.6z"/>
    </g>
  </g>
</svg>