<svg xmlns="http://www.w3.org/2000/svg" viewBox="0 0 35 28">
	<g fill="currentColor" fill-rule="nonzero">
		<path d="M31.412 5.934h-4.85L24.284.283H9.858L7.58 5.933H6.83V3.109H3.414v2.826h-.683A2.724 2.724 0 000 8.646v16.596c0 1.506 1.234 2.731 2.75 2.731h28.643c1.516 0 2.75-1.225 2.75-2.73V8.645a2.724 2.724 0 00-2.731-2.712zM4.552 4.238H5.69v1.696H4.552V4.238zm28.453 21.004c0 .884-.724 1.601-1.612 1.601H2.75a1.608 1.608 0 01-1.612-1.6V8.645a1.59 1.59 0 011.593-1.582H8.352l2.276-5.651h12.887l2.276 5.651h5.62c.879 0 1.594.71 1.594 1.582v16.596z"/><path d="M17.071 5.369C11.424 5.369 6.83 9.932 6.83 15.54c0 5.609 4.595 10.172 10.242 10.172 5.648 0 10.243-4.563 10.243-10.172 0-5.609-4.595-10.172-10.243-10.172zm0 19.214c-5.02 0-9.104-4.057-9.104-9.042 0-4.986 4.084-9.042 9.104-9.042s9.105 4.056 9.105 9.042c0 4.985-4.085 9.042-9.105 9.042z"/><path d="M17.071 8.76c-3.765 0-6.828 3.041-6.828 6.78 0 3.74 3.063 6.782 6.828 6.782 3.766 0 6.829-3.042 6.829-6.781 0-3.74-3.063-6.782-6.829-6.782zm0 12.432c-3.137 0-5.69-2.535-5.69-5.651 0-3.116 2.553-5.651 5.69-5.651 3.138 0 5.69 2.535 5.69 5.65 0 3.117-2.552 5.652-5.69 5.652zM29.59 8.194a2.27 2.27 0 00-2.276 2.26 2.27 2.27 0 002.276 2.261 2.27 2.27 0 002.277-2.26 2.27 2.27 0 00-2.277-2.26zm0 3.391a1.135 1.135 0 01-1.138-1.13c0-.624.51-1.13 1.138-1.13.628 0 1.138.506 1.138 1.13 0 .623-.51 1.13-1.138 1.13z"/>
	</g>
</svg>