<svg xmlns="http://www.w3.org/2000/svg" viewBox="0 0 17.808 19.628"><defs/>
	<path fill="currentColor" d="M10.056 19.628H1.2A1.191 1.191 0 010 18.446V1.183A1.191 1.191 0 011.2 0h8.86a1.191 1.191 0 011.2 1.183V5.5h-.67V1.183a.532.532 0 00-.535-.528H1.2a.532.532 0 00-.535.528v17.263a.532.532 0 00.535.527h8.86a.532.532 0 00.535-.528V13.5h.661v4.946a1.19 1.19 0 01-1.2 1.182zm-4.019-.981h-.822a.908.908 0 01-.913-.9v-.158a.909.909 0 01.913-.9h.822a.909.909 0 01.913.9v.158a.909.909 0 01-.914.9zm-.821-1.309a.25.25 0 00-.251.248v.158a.25.25 0 00.251.247h.822a.249.249 0 00.25-.247v-.158a.25.25 0 00-.251-.248zM9.6 1.635h-.33a.327.327 0 110-.654h.33a.327.327 0 110 .654zm-2.316 0H3.972a.327.327 0 110-.654h3.309a.327.327 0 110 .654z"/>
	<path fill="currentColor" d="M17.808 11.893l-2.934 1.54v-1.046H7.616v-2.276h1.128V11.4h6.13v-1.046zM7.19 5.884v1.047h7.221v2.275h-1.142V7.917H7.19v1.047l-2.971-1.54z"/>
	<g class="a"><path fill="currentColor" class="b" d="M0 15h11v.7H0z"/>
	<path fill="currentColor" class="c" d="M.25 15.25h10.5v.2H.25z"/></g>
	<g class="a"><path fill="currentColor" class="b" d="M0 2h11v.7H0z"/><path class="c" d="M.25 2.25h10.5v.2H.25z"/></g>
</svg>