<svg xmlns="http://www.w3.org/2000/svg" viewBox="0 0 51 34">
	<g fill="currentColor" fill-rule="nonzero">
		<path d="M44.363 2.387H5.713c-.683 0-1.239.544-1.239 1.211v22.348c0 .667.556 1.21 1.238 1.21h38.651c.683 0 1.238-.543 1.238-1.21V3.598c0-.667-.555-1.21-1.238-1.21zm.167 23.559c0 .09-.075.162-.167.162H5.713a.165.165 0 01-.167-.162V3.598c0-.09.074-.162.166-.162h38.651c.092 0 .167.073.167.162v22.348z"/><path d="M49.272 27.943h-1.26V3.023c0-1.65-1.373-2.994-3.061-2.994H5.125c-1.689 0-3.062 1.343-3.062 2.995v24.919H.803a.795.795 0 00-.803.786v2.16c0 1.403 1.167 2.544 2.601 2.544h44.873c1.434 0 2.601-1.141 2.601-2.544v-2.16a.795.795 0 00-.803-.786zM3.67 3.023c0-.784.653-1.422 1.454-1.422h39.827c.802 0 1.454.638 1.454 1.423v24.919H3.67V3.023zm19.01 26.492h4.716v.411a.338.338 0 01-.342.334h-4.033a.338.338 0 01-.341-.334v-.411zm25.788 1.374a.984.984 0 01-.994.972H2.602a.984.984 0 01-.994-.972v-1.374h20v.411c0 .762.634 1.382 1.413 1.382h4.034c.779 0 1.413-.62 1.413-1.382v-.411h20v1.374z"/>
	</g>
</svg>