<svg xmlns="http://www.w3.org/2000/svg" viewBox="0 0 24 24">
	<g fill="none" fill-rule="evenodd">
		<g transform="matrix(-1 0 0 1 24 0)"><path d="M23.078 13.273l-9.314-9.324a2.597 2.597 0 00-1.843-.767c-.057 0-.114 0-.17.006l-6.737.445a1.47 1.47 0 00-1.366 1.368l-.16 2.393a4.642 4.642 0 01-.964-.741c-.72-.72-1.165-1.616-1.258-2.528-.088-.865.16-1.637.699-2.175 1.144-1.145 3.251-.891 4.706.56a.622.622 0 10.88-.881C5.605-.304 2.705-.552 1.08 1.074.272 1.882-.1 3.006.023 4.254.143 5.452.717 6.618 1.64 7.54a5.781 5.781 0 001.755 1.207l-.197 2.999a2.606 2.606 0 00.761 2.02l9.32 9.323c.59.59 1.372.912 2.205.912.834 0 1.616-.326 2.206-.912l5.4-5.402c.59-.59.911-1.373.911-2.207a3.109 3.109 0 00-.922-2.206zm-.875 3.527l-5.405 5.408c-.352.352-.823.549-1.325.549s-.974-.197-1.326-.55l-9.319-9.323a1.365 1.365 0 01-.399-1.056l.182-2.715a4.666 4.666 0 00.771.067c1.061 0 2.009-.372 2.713-1.077a.622.622 0 10-.88-.88c-.539.538-1.31.787-2.175.699a3.726 3.726 0 01-.347-.052l.187-2.776a.228.228 0 01.212-.213l6.736-.445c.031 0 .062-.005.093-.005.363 0 .715.145.968.399l9.314 9.318c.353.352.55.824.55 1.326 0 .503-.197.974-.55 1.326z" fill="currentColor" fill-rule="nonzero"/><circle stroke="currentColor" cx="8.5" cy="7.5" r="1.5"/></g>
		<g stroke="currentColor" stroke-linecap="square"><path d="M6.4 12.4l4.8 4.8M4.4 14.4l4.8 4.8"/></g>
	</g>
</svg>