<svg xmlns="http://www.w3.org/2000/svg" viewBox="0 0 32 32">
  <g fill-rule="nonzero" fill="none">
    <circle fill="#500097" cx="16" cy="16" r="16"/>
    <g fill="#FFF">
      <path d="M19.873 6H11.47c-.8-.01-1.457.628-1.47 1.428v16.589c.013.8.67 1.439 1.47 1.428h8.4c.8.01 1.457-.628 1.47-1.428V7.428A1.451 1.451 0 0019.873 6zm-9.206 2.593h10.008v12.314H10.667V8.593zm.803-1.945h8.4a.792.792 0 01.8.779v.517H10.667v-.516a.792.792 0 01.803-.78zM19.873 24.8H11.47a.792.792 0 01-.8-.779v-2.465h10.005v2.461a.792.792 0 01-.802.783z"/>
      <path d="M16.076 22.204a1.215 1.215 0 100 2.43 1.215 1.215 0 000-2.43zm0 1.823a.608.608 0 110-1.216.608.608 0 010 1.216zM14.321 7.62h1.08c.149 0 .27-.181.27-.405 0-.224-.12-.405-.27-.405h-1.08c-.149 0-.27.181-.27.405 0 .224.121.405.27.405zM16.751 7.62h.27c.149 0 .27-.181.27-.405 0-.224-.121-.405-.27-.405h-.27c-.149 0-.27.181-.27.405 0 .224.121.405.27.405z"/>
    </g>
  </g>
</svg>