<svg xmlns="http://www.w3.org/2000/svg" viewBox="0 0 32 32">
  <g fill="none" fill-rule="evenodd">
    <path d="M16 0C7.163 0 0 7.163 0 16s7.163 16 16 16 16-7.163 16-16A16 16 0 0016 0z" fill="#009CCB" fill-rule="nonzero"/>
    <path d="M7.5 8.5v12.466h15.342V8.5H7.5zm14.384 11.507H8.459V9.459h13.425v10.548zm-3.836-8.151a1.438 1.438 0 102.876 0 1.438 1.438 0 00-2.876 0zm2.877 7.192H9.418l2.877-7.671 3.835 4.794 1.918-1.438 2.877 4.315z" fill="#FFF" fill-rule="nonzero"/>
    <g stroke-linecap="square" stroke="#FFF">
      <path d="M24 12.616v10.027M24 22.643H10.336"/>
    </g>
  </g>
</svg>