<svg xmlns="http://www.w3.org/2000/svg" viewBox="0 0 32 32">
  <g fill-rule="nonzero" fill="none">
    <path d="M16 0c8.837 0 16 7.163 16 16s-7.163 16-16 16S0 24.837 0 16 7.163 0 16 0z" fill="#FF9F00"/>
    <g fill="#FFF">
      <path d="M9.206 20.184a1.167 1.167 0 000 2.33c.643 0 1.166-.522 1.166-1.164 0-.643-.523-1.166-1.166-1.166zm0 1.562a.397.397 0 11.001-.794.397.397 0 010 .794zM21.276 19.242a.384.384 0 00-.365-.266h-2.283l-.705-2.17a.388.388 0 00-.366-.266.388.388 0 00-.365.266l-.705 2.17h-2.283a.384.384 0 00-.226.695l1.847 1.342-.705 2.17a.387.387 0 00.127.421c.134.105.326.11.464.01l1.846-1.342 1.847 1.341a.387.387 0 00.48-.023.387.387 0 00.111-.406l-.705-2.171 1.846-1.342a.384.384 0 00.14-.43zm-2.664 1.313a.384.384 0 00-.14.43l.427 1.311-1.116-.81a.388.388 0 00-.451 0l-1.116.81.426-1.311a.384.384 0 00-.14-.43l-1.115-.81h1.379a.384.384 0 00.365-.266l.426-1.311.427 1.311a.384.384 0 00.365.266h1.38l-1.117.81z"/>
      <path d="M26.01 15.618a1.743 1.743 0 00-1.09-3.098h-6.181c.192-.42.414-1.057.54-1.944.295-2.061-.15-3.155-.575-3.71-.36-.47-.843-.754-1.398-.821a.819.819 0 00-.908.784c-.072.739-.335 2.767-.712 3.52-.968 1.937-3.277 3.092-3.99 3.412a1.419 1.419 0 00-.928-.345H7.644c-.786 0-1.425.64-1.425 1.426v7.81c0 .785.64 1.425 1.425 1.425h3.124c.42 0 .8-.184 1.06-.474.406.256 1.06.541 1.964.541h10.042c.96 0 1.741-.781 1.741-1.741 0-.44-.164-.843-.434-1.15a1.743 1.743 0 00.542-2.714 1.739 1.739 0 00.326-2.921zm-15.242 7.69H7.644a.658.658 0 01-.657-.657v-7.81c0-.362.295-.656.657-.656h3.124c.184 0 .35.075.469.197v8.569c0 .046.008.091.024.133a.655.655 0 01-.493.224zm12.537-7.306h1.615a.974.974 0 010 1.946h-1.615a.384.384 0 100 .768h1.072a.974.974 0 010 1.946H23.01a.384.384 0 100 .768h.823a.974.974 0 010 1.945H13.792c-.793 0-1.33-.265-1.622-.465.015-.084.024-.17.024-.259v-7.81c0-.15-.024-.294-.067-.43.9-.414 3.205-1.635 4.247-3.718.52-1.041.78-3.694.79-3.806a.4.4 0 00.003-.037c0-.013.005-.024.015-.033a.038.038 0 01.031-.01c.24.03.589.145.88.526.336.438.682 1.337.426 3.134-.218 1.523-.734 2.19-.737 2.194a.388.388 0 00.297.627h6.84a.974.974 0 010 1.946h-1.614a.384.384 0 100 .768z"/>
    </g>
  </g>
</svg>