<svg xmlns="http://www.w3.org/2000/svg" viewBox="0 0 24 24">
  <g fill="none" fill-rule="evenodd">
    <path d="M15.5 14h-.79l-.28-.27a6.51 6.51 0 10-.7.7l.27.28v.79l5 4.99L20.49 19l-4.99-5zm-6 0a4.5 4.5 0 110-9 4.5 4.5 0 010 9z" fill="currentColor" fill-rule="nonzero"/>
    <path d="M0 0h24v24H0z"/>
  </g>
</svg>