<svg xmlns="http://www.w3.org/2000/svg" viewBox="0 0 32 32">
  <g fill-rule="nonzero" fill="none">
    <path d="M16 0c8.837 0 16 7.163 16 16s-7.163 16-16 16S0 24.837 0 16 7.163 0 16 0z" fill="#3BAA00"/>
    <g fill="#FFF" stroke="#FFF" stroke-width=".3">
      <path d="M12.624 18.183H21.9c.228 0 .429-.15.492-.369l2.046-7.128a.51.51 0 00-.492-.649H11.445L11.079 8.4a.511.511 0 00-.5-.4H7.511a.509.509 0 000 1.018h2.659l1.846 8.272a1.526 1.526 0 00.609 2.93H21.9a.509.509 0 000-1.019h-9.274a.509.509 0 010-1.018h-.002zm10.643-7.128l-1.753 6.11h-8.478l-1.364-6.11h11.595z"/>
      <path d="M12.237 21.965a1.746 1.746 0 103.492 0 1.746 1.746 0 00-3.492 0h0zm1.746-.582a.582.582 0 110 1.164.582.582 0 010-1.164zM19.219 21.965a1.746 1.746 0 103.492 0 1.746 1.746 0 00-3.492 0h0zm1.746-.582a.582.582 0 110 1.164.582.582 0 010-1.164z"/>
    </g>
  </g>
</svg>