<svg xmlns="http://www.w3.org/2000/svg" viewBox="0 0 30 30">
    <g fill="currentColor" fill-rule="nonzero">
      <path d="M21.016 20.344H7.704a.512.512 0 01-.512-.512V7.544c0-.283.23-.512.512-.512h13.312c.283 0 .512.23.512.512v12.288c0 .283-.23.512-.512.512zm-12.8-1.024h12.288V8.056H8.216V19.32z"/>
      <path d="M11.8 20.344a.512.512 0 01-.512-.512V7.544a.512.512 0 011.024 0v12.288c0 .283-.23.512-.512.512z"/>
      <path d="M21.016 11.128H7.704a.512.512 0 010-1.024h13.312a.512.512 0 010 1.024zm0 3.072H7.704a.512.512 0 010-1.024h13.312a.512.512 0 010 1.024zm0 3.072H7.704a.512.512 0 010-1.024h13.312a.512.512 0 010 1.024z"/>
    </g>
</svg>