<svg xmlns="http://www.w3.org/2000/svg" viewBox="0 0 28 28">
  <g fill="currentColor" fill-rule="nonzero">
    <path d="M13.77 0C6.165 0 0 6.165 0 13.77c0 7.605 6.165 13.77 13.77 13.77 7.605 0 13.77-6.165 13.77-13.77C27.532 6.168 21.372.008 13.77 0zm0 26.622C6.672 26.622.918 20.868.918 13.77.918 6.672 6.672.918 13.77.918c7.098 0 12.852 5.754 12.852 12.852-.008 7.095-5.757 12.844-12.852 12.852z"/>
    <path d="M14.229 11.944V7.288a.459.459 0 00-.918 0v4.656A1.834 1.834 0 0012 13.255H8.721a.459.459 0 100 .918H12a1.832 1.832 0 102.23-2.229h-.001zm-.459 2.688a.919.919 0 11-.086-1.836.919.919 0 01.086 1.836zm0-10.1a.459.459 0 00.459-.459v-.457a.459.459 0 00-.918 0v.46c0 .253.206.458.459.458v-.002zm0 18.36a.459.459 0 00-.459.46v.458a.459.459 0 10.918 0v-.459a.459.459 0 00-.459-.459zm10.1-9.639h-.459a.459.459 0 000 .918h.459a.459.459 0 000-.918zm-19.737 0h-.461a.459.459 0 100 .918h.459a.459.459 0 000-.918h.002zM20.586 6.25l-.325.324a.46.46 0 10.65.649l.324-.325a.46.46 0 00-.65-.649l.001.001zM6.63 20.206l-.325.324a.46.46 0 10.65.65l.324-.325a.46.46 0 00-.65-.65l.001.001zm14.28 0a.459.459 0 10-.649.649l.325.324a.459.459 0 00.649-.649l-.325-.324zM6.954 6.25a.461.461 0 10-.654.65l.325.325a.46.46 0 00.649-.65l-.325-.324.005-.001z"/>
  </g>
</svg>