<svg xmlns="http://www.w3.org/2000/svg" viewBox="0 0 38 33">
  <g transform="translate(1 1)" fill="none" fill-rule="nonzero" stroke="currentColor" stroke-width="1.56">
    <rect x="8.58" y=".78" width="18.72" height="29.64" rx="3.12"/>
    <path d="M30.42 5.46h2.808c1.034 0 1.872 1.21 1.872 2.703v14.874c0 1.492-.838 2.703-1.872 2.703H30.42M5.46 5.46H2.652C1.618 5.46.78 6.67.78 8.163v14.874c0 1.492.838 2.703 1.872 2.703H5.46"/>
  </g>
</svg>