<svg xmlns="http://www.w3.org/2000/svg" viewBox="0 0 32 32">
  <g fill-rule="nonzero" fill="none">
    <circle fill="#9015C5" cx="16" cy="16" r="16"/>
    <path d="M20.374 9h-9.359v1.859h3.3a2.794 2.794 0 012.63 1.86h-5.93v1.859h5.93a2.794 2.794 0 01-2.63 1.859h-3.3V18.3l5.449 5.449 1.315-1.315-4.134-4.134h.671a4.656 4.656 0 004.554-3.722h1.5v-1.859h-1.5a4.629 4.629 0 00-.839-1.859h2.343V9z" fill="#FFF"/>
  </g>
</svg>