<svg xmlns="http://www.w3.org/2000/svg" viewBox="2194 -8926 16 16">
  <defs>
    <style>
      .cls-1 {
        fill-rule: evenodd;
      }
    </style>
  </defs>
  <path id="back" class="cls-1" d="M20,11H7.8l5.6-5.6L12,4,4,12l8,8,1.4-1.4L7.8,13H20V11Z" transform="translate(2190 -8930)"/>
</svg>
