<svg xmlns="http://www.w3.org/2000/svg" viewBox="1368 -8070 30 30">
  <defs>
    <style>
      .cls-1 {
        opacity: 0.56;
      }

      .cls-2 {
        fill: #fff;
      }

      .cls-3, .cls-5 {
        fill: none;
      }

      .cls-3 {
        stroke: #fff;
        stroke-width: 1.5px;
      }

      .cls-4 {
        stroke: none;
      }
    </style>
  </defs>
  <g id="Video_Small_Icon" transform="translate(1160 -8413.999)">
    <path id="Path_14" data-name="Path 14" class="cls-1" d="M14.553,0A14.553,14.553,0,1,1,0,14.553,14.553,14.553,0,0,1,14.553,0Z" transform="translate(208.766 344.766)"/>
    <g id="_375" data-name="375" transform="translate(220.792 353.946)">
      <path id="Path_15" data-name="Path 15" class="cls-2" d="M20.127,14.529,13.765,9.9a.767.767,0,0,0-1.218.619V19.77a.765.765,0,0,0,.419.684.773.773,0,0,0,.349.083.763.763,0,0,0,.451-.149l6.362-4.621a.761.761,0,0,0,0-1.238Z" transform="translate(-12.547 -9.758)"/>
    </g>
    <g id="Ellipse_4" data-name="Ellipse 4" class="cls-3" transform="translate(208 343.999)">
      <circle class="cls-4" cx="15" cy="15" r="15"/>
      <circle class="cls-5" cx="15" cy="15" r="14.25"/>
    </g>
  </g>
</svg>
