<?xml version="1.0" encoding="UTF-8"?>
<svg width="268px" height="171px" viewBox="0 0 268 171" version="1.1" xmlns="http://www.w3.org/2000/svg" xmlns:xlink="http://www.w3.org/1999/xlink">
    <!-- Generator: Sketch 63.1 (92452) - https://sketch.com -->
    <title>Sprite_WEB_TML_astrology</title>
    <desc>Created with Sketch.</desc>
    <g id="Sprite_WEB_TML_astrology" stroke="none" stroke-width="1" fill="none" fill-rule="evenodd">
        <g id="group_2-copy-2" transform="translate(17.000000, 16.000000)">
            <circle id="Oval" stroke="#000000" stroke-width="0.88" cx="19.14" cy="19.14" r="19.14"></circle>
            <g id="Group" transform="translate(4.872000, 9.744000)" fill="#000000" fill-rule="nonzero">
                <path d="M12.198792,2.284272 C12.198792,2.284272 12.672768,1.314048 11.38656,1.182504 C11.38656,1.182504 11.123472,-0.047328 9.217128,0.340344 C9.217128,0.340344 6.84516,-0.954912 4.340952,1.508232 C4.340952,1.508232 2.037192,0.860256 0.613872,4.810752 C-0.809448,8.761248 0.1392,15.114336 4.544184,16.992144 C4.544184,16.992144 5.424624,17.315088 5.01816,18.093912 C4.612392,18.873432 3.120864,18.222672 4.001304,17.380512 C4.001304,17.380512 2.783304,17.76888 3.392304,18.741888 C4.001304,19.714896 5.696064,20.03784 6.305064,18.489936 C6.305064,18.489936 7.05048,19.591704 5.290296,20.174256 C5.290296,20.174256 8.337384,21.469512 8.880264,18.68412 C9.104376,18.933288 9.216432,19.257624 9.19068,19.58544 C9.164928,19.913952 9.004152,20.2188 8.743152,20.433168 C8.743152,20.433168 11.046912,21.923304 13.224,19.46016 C13.224,19.46016 7.804944,18.230328 6.51804,9.880416 C6.51804,9.880416 8.8218,9.3612 9.36468,6.640536 C9.90756,3.920568 9.96324,2.349696 12.198792,2.284272 L12.198792,2.284272 Z" id="Path"></path>
                <path d="M11.858448,2.784 C12.468326,3.53523248 12.788393,4.48036845 12.760464,5.447592 C12.732624,7.12008 12.34704,8.41116 13.76688,8.939424 C13.76688,8.939424 14.181,9.026424 13.647864,9.642384 C13.115424,10.258344 13.146744,10.258344 13.412616,10.612608 C13.679184,10.966176 13.412616,11.346192 13.027032,11.461728 C13.027032,11.461728 13.973592,11.717856 13.086888,12.313632 C13.086888,12.313632 12.525216,12.546792 12.791784,13.281072 C13.058352,14.014656 12.494592,14.160816 11.961456,14.101656 C11.429016,14.042496 9.418968,13.588704 9.359808,14.719704 C9.300648,15.8514 9.359808,17.798808 10.98636,17.947752 C12.613608,18.096696 13.174584,18.358392 12.967872,20.17704 C12.967872,20.17704 12.111792,20.410896 9.626376,18.124536 C7.14096,15.838872 6.582072,12.5106 6.264,10.491504 C7.64325606,10.0885879 8.68454993,8.9528991 8.966568,7.543944 C9.442632,5.155272 9.380688,2.755464 11.858448,2.784 L11.858448,2.784 Z M16.339992,2.284272 C16.339992,2.284272 15.86532,1.314048 17.152224,1.182504 C17.152224,1.182504 17.415312,-0.047328 19.318872,0.340344 C19.318872,0.340344 21.691536,-0.954912 24.197832,1.508232 C24.197832,1.508232 26.502288,0.860256 27.922824,4.810752 C29.344056,8.761248 28.397496,15.114336 23.995296,16.992144 C23.995296,16.992144 23.114856,17.315088 23.520624,18.093912 C23.927088,18.873432 25.416528,18.222672 24.535392,17.380512 C24.535392,17.380512 25.756176,17.76888 25.147872,18.741888 C24.538176,19.714896 22.843416,20.03784 22.234416,18.489936 C22.234416,18.489936 21.488304,19.591704 23.249184,20.174256 C23.249184,20.174256 20.202096,21.469512 19.659216,18.68412 C19.192896,19.20264 19.252056,19.98564 19.793544,20.433168 C19.793544,20.433168 17.491872,21.923304 15.312,19.46016 C15.312,19.46016 20.731752,18.230328 22.02144,9.880416 C22.02144,9.880416 19.716984,9.3612 19.174104,6.640536 C18.631224,3.920568 18.575544,2.349696 16.339992,2.284272 L16.339992,2.284272 Z" id="Shape"></path>
                <path d="M16.685904,2.784 C16.0715881,3.53326282 15.7483288,4.4790681 15.775536,5.447592 C15.803376,7.12008 16.18896,8.41116 14.76912,8.939424 C14.76912,8.939424 14.355,9.026424 14.888136,9.642384 C15.420576,10.258344 15.389256,10.258344 15.123384,10.612608 C14.856816,10.966176 15.123384,11.346192 15.508968,11.461728 C15.508968,11.461728 14.562408,11.717856 15.449112,12.313632 C15.449112,12.313632 16.010784,12.546792 15.744216,13.281072 C15.477648,14.014656 16.041408,14.160816 16.572456,14.101656 C17.101416,14.042496 19.117032,13.588704 19.176192,14.719704 C19.235352,15.8514 19.176192,17.798808 17.54964,17.947752 C15.922392,18.096696 15.361416,18.358392 15.568128,20.17704 C15.568128,20.17704 16.424208,20.410896 18.909624,18.124536 C21.39504,15.838872 21.953928,12.5106 22.272,10.491504 C20.8927439,10.0885879 19.8514501,8.9528991 19.569432,7.543944 C19.101024,5.155272 19.162968,2.755464 16.685904,2.784 L16.685904,2.784 Z" id="Path"></path>
            </g>
        </g>
        <g id="group_3-copy" transform="translate(115.000000, 16.000000)">
            <circle id="Oval" stroke="#000000" stroke-width="0.88" cx="19.14" cy="19.14" r="19.14"></circle>
            <g id="Group" transform="translate(6.264000, 4.872000)" fill="#000000" fill-rule="nonzero">
                <path d="M11.832,10.834632 C11.832,10.834632 9.346584,10.237464 7.804248,10.512384 C7.804248,10.512384 6.46236,10.559016 6.264,12.948384 L8.203056,13.224 C8.203056,13.224 8.643624,11.01768 11.832,10.834632 Z" id="Path"></path>
                <path d="M7.656,10.48176 C7.656,10.48176 5.819256,11.19168 6.19788,13.10568 C6.19788,13.10568 4.469016,13.867104 3.494616,11.521584 C3.494616,11.521584 3.226656,9.49344 4.997976,9.769752 L7.656,10.482456 L7.656,10.48176 Z" id="Path"></path>
                <path d="M3.283728,10.44 C3.283728,10.44 3.091632,8.52252 4.872,9.13848 C4.872,9.13848 4.631184,8.34504 3.13896,7.31496 C1.64604,6.28488 2.08104,7.735344 2.417904,8.67216 C2.649672,9.286032 2.939904,9.877632 3.283728,10.44 L3.283728,10.44 Z M1.727472,6.96 C1.727472,6.96 1.727472,5.640384 2.584248,6.554928 C2.584248,6.554928 2.414424,4.317984 4.176,2.784 C4.176,2.784 2.34552,2.986536 1.602888,5.17128 C1.064184,6.795048 1.727472,6.96 1.727472,6.96 L1.727472,6.96 Z M2.784,2.784 C2.784,2.784 4.8372,2.351088 5.862408,1.282728 C6.887616,0.213672 8.067336,0.418992 8.940816,0.364008 C9.8136,0.308328 5.14344,-1.318224 2.784,2.784 Z" id="Shape"></path>
                <path d="M9.146832,0 C9.146832,0 8.311632,0.708528 11.5014,1.133088 C11.5014,1.133088 12.923328,1.745568 13.169016,2.784 C13.169016,2.784 14.004216,0.23664 9.146136,0 L9.146832,0 Z M14.016048,2.097744 C14.016048,2.097744 13.738344,3.457032 14.126712,4.241424 C14.514384,5.026512 14.848464,5.75592 14.460792,6.591816 C14.072424,7.427016 14.40372,7.802856 15.01272,8.212104 C15.01272,8.212104 14.460792,6.644712 15.3468,6.017616 C16.233504,5.389824 16.343472,8.316504 15.17976,9.048 C15.17976,9.048 18.062592,7.531416 15.899424,4.658328 C13.736256,1.78524 14.016048,2.097744 14.016048,2.097744 Z M22.968,16.6518 C22.968,16.6518 22.446696,14.316024 19.361328,13.22052 C16.27596,12.125712 13.08828,13.121688 12.303192,14.166384 C12.303192,14.166384 12.303192,12.275352 15.911952,12.376968 C15.911952,12.376968 14.028576,10.287576 10.788,11.530632 C7.547424,12.773688 7.23144,17.294904 11.728296,16.10544 C11.728296,16.10544 11.832696,19.437192 16.537656,19.488 C16.537656,19.488 19.465728,19.33836 21.143088,18.542832 C21.143088,18.542832 17.17032,18.591552 16.124928,17.596968 C15.080928,16.603776 15.601536,15.508272 17.64012,14.961912 C19.6794,14.415552 22.131408,15.408744 22.968,16.6518 L22.968,16.6518 Z M20.184,9.54564 C20.184,9.54564 21.379728,10.275048 20.800656,11.225784 C20.800656,11.225784 21.731208,14.738496 25.391472,13.741824 C25.391472,13.741824 23.43084,13.165536 23.380032,11.95728 C23.380032,11.95728 24.815184,10.498464 27.144,12.903144 C27.144,12.903144 26.730576,7.396392 20.184,9.54564 L20.184,9.54564 Z" id="Shape"></path>
                <path d="M20.818752,10.294536 C20.818752,10.294536 21.199464,9.498312 20.062896,9.098808 C20.062896,9.098808 16.311456,8.657544 13.92,10.382928 C13.92,10.382928 15.225,10.337688 15.661392,11.136 C15.661392,11.136 16.530696,9.586704 18.052152,9.453768 C18.049368,9.453768 20.49372,9.896424 20.818752,10.294536 L20.818752,10.294536 Z M8.238552,15.78876 C8.09980559,15.6457867 7.98003771,15.4855503 7.8822,15.312 C7.8822,15.312 5.204688,15.89664 5.60976,19.18176 C5.60976,19.18176 6.366312,22.095912 8.034624,22.78356 C8.034624,22.78356 8.489112,26.65332 13.592184,26.439648 C13.592184,26.439648 10.258344,25.380336 10.258344,23.26032 C10.258344,23.26032 13.945752,22.942944 15.312,24.734448 C15.312,24.734448 14.754504,19.594488 8.590032,21.026856 C7.93921459,20.0861219 7.04964544,19.3356455 6.012744,18.852552 C6.012744,18.852552 8.086824,17.221128 8.238552,15.78876 L8.238552,15.78876 Z" id="Shape"></path>
                <path d="M8.597688,14.715528 C8.597688,14.715528 3.130608,16.704 4.246992,21.576 C4.246992,21.576 1.265328,18.592944 7.061616,14.217192 L9.048,13.92 C9.048,13.92 8.927592,14.51508 8.597688,14.715528 Z" id="Path"></path>
                <path d="M8.352,13.326312 C8.352,13.326312 4.671552,14.037624 3.262848,16.242552 C3.262848,16.242552 1.31196,18.342384 1.756008,20.184 C1.756008,20.184 0.902712,18.9312 1.808904,16.754808 C2.622528,14.809488 3.596928,13.990296 7.063704,13.224 L8.352,13.326312 Z" id="Path"></path>
                <path d="M5.568,13.376424 C5.568,13.376424 0.656328,13.633248 0.054984,18.096 C0.054984,18.096 -0.696,14.505336 3.363072,13.224 L5.568,13.376424 Z M12.528,10.76016 L13.771056,11.136 C13.771056,11.136 13.609584,10.29384 16.008,9.833088 C14.74128,9.56304 13.406352,9.918 12.528,10.76016 Z M11.761704,11.136 L9.744,10.807488 C10.82976,10.160208 12.015744,9.797592 13.224,9.744 C13.224,9.744 12.195312,10.208232 11.761704,11.136 Z" id="Shape"></path>
            </g>
        </g>
        <g id="group_4-copy" transform="translate(18.000000, 65.000000)">
            <circle id="Oval" stroke="#000000" stroke-width="0.88" cx="19.14" cy="19.14" r="19.14"></circle>
            <g id="Group" transform="translate(5.568000, 7.656000)" fill="#000000" fill-rule="nonzero">
                <path d="M8.548968,7.093632 C8.548968,7.093632 7.428408,5.060616 4.068816,5.729472 C4.068816,5.729472 3.468168,6.992016 3.624768,7.893336 L4.43352,7.893336 C4.43352,7.893336 3.782064,8.0214 3.698544,8.331816 C3.615024,8.642232 4.166256,11.319744 6.303672,11.937096 C6.303672,11.937096 6.408768,10.881264 6.69552,10.648104 L6.77208,12.102744 C6.77208,12.102744 12.036624,14.394672 13.651344,8.34156 C13.651344,8.34156 11.852184,8.36592 11.64408,8.004696 C11.64408,8.004696 13.494744,7.929528 13.886592,7.721424 C13.886592,7.721424 14.5116,3.96024 10.34256,2.390064 C10.34256,2.390064 8.9088,2.981664 8.180784,3.754224 C8.180784,3.754224 8.492592,2.62044 9.40644,2.1576 C9.40644,2.1576 6.1248,1.82352 4.977792,2.62044 C3.830784,3.41736 3.909432,4.141896 3.909432,4.50312 C3.63775313,4.15765667 3.5872122,3.68738277 3.77928,3.29208 C3.77928,3.29208 0.592992,4.475976 0,8.37984 C0,8.37984 2.529264,5.288208 4.821192,5.186592 C7.112424,5.084976 9.56304,6.112272 9.094632,7.917696 C8.983272,8.068728 8.829456,8.18496 8.651976,8.251776 C8.394456,8.331816 7.585704,7.788936 8.548968,7.093632 L8.548968,7.093632 Z" id="Path"></path>
                <path d="M13.572,10.789392 C13.572,10.789392 15.41292,7.667832 13.747392,4.702872 C12.08256,1.737912 7.900992,1.579224 6.264,2.161776 C6.264,2.161776 6.965568,0.917328 9.070272,0.30972 L9.021552,1.26324 L9.467688,0.12528 C9.467688,0.12528 12.077688,-0.299976 14.116968,0.416904 L12.947688,1.738608 C12.947688,1.738608 14.491416,0.652848 15.459552,1.1832 C16.426992,1.713552 18.417552,3.115296 18.64236,5.893032 C18.64236,5.893032 17.225304,6.607128 16.25508,6.502728 C16.25508,6.502728 17.189808,7.058136 18.792028,6.714312 C18.794088,6.704568 18.693864,12.603864 13.572,10.789392 L13.572,10.789392 Z" id="Path"></path>
                <path d="M17.4,2.088 C17.4,2.088 20.262648,4.661808 18.922152,9.038256 C18.922152,9.038256 20.0622,9.495528 20.353128,10.44 C20.353128,10.44 21.799416,8.681208 21.546072,6.694128 L20.606472,6.286968 L21.469512,6.18396 C21.469512,6.18396 21.076968,2.761728 17.4,2.088 Z M23.11416,16.667808 C22.36248,16.28988 21.556512,15.03708 21.160488,13.304736 C20.76516,11.573088 20.561928,10.69752 18.849768,9.744 C18.849768,9.744 17.31648,12.60456 13.447416,11.072664 C13.447416,11.072664 11.606496,13.3806 9.891552,13.406352 C8.177304,13.432104 6.961392,13.432104 5.607672,12.462576 C5.607672,12.462576 3.869064,15.473472 5.737128,17.956104 C7.605888,20.438736 9.864408,20.691384 10.048152,22.272 L11.864712,20.664936 C11.864712,20.664936 7.918392,19.034208 8.44596,15.09624 C8.44596,15.09624 8.548272,19.987728 13.948536,20.388624 C19.348104,20.790216 20.467272,21.418008 20.467272,21.418008 C20.467272,21.418008 21.44376,21.518928 21.58296,21.115944 C21.58296,21.115944 24.308496,20.865384 24.36,17.630376 C24.0059967,17.2371972 23.583956,16.9111177 23.11416,16.667808 Z M17.714592,13.981944 C16.674072,13.906776 15.76092,12.65328 15.76092,12.65328 C19.836696,11.65104 20.252208,15.086496 20.252208,15.086496 C19.4532,13.85736 18.745368,14.057808 17.714592,13.981944 L17.714592,13.981944 Z" id="Shape"></path>
            </g>
        </g>
        <g id="group_5-copy" transform="translate(115.000000, 65.000000)">
            <circle id="Oval" stroke="#000000" stroke-width="0.88" cx="19.14" cy="19.14" r="19.14"></circle>
            <g id="Group" transform="translate(6.264000, 6.960000)" fill="#000000" fill-rule="nonzero">
                <path d="M25.752,1.55556 C25.752,1.55556 23.432928,4.895664 18.31176,3.668616 C13.191288,2.441568 11.79024,2.930856 11.023248,5.142048 C10.256952,7.354632 12.038712,7.694976 10.974528,8.874696 C9.91104,10.055112 7.052568,10.301496 6.09696,7.891944 C5.081496,5.337624 5.322312,2.4882 8.656152,0.622224 C11.989992,-1.243752 17.594184,1.654392 19.964064,1.948104 C22.33464,2.241816 24.062112,2.73528 25.752,1.55556 Z" id="Path"></path>
                <path d="M22.272,12.84816 C22.272,12.84816 18.526128,10.441392 18.407808,9.20808 C18.407808,9.20808 19.359936,8.385408 18.407808,7.564128 C18.407808,7.564128 16.087344,7.797984 15.4338,6.9774 L17.457768,7.035168 C16.9757009,6.28627598 16.3225344,5.66269045 15.55212,5.215824 C14.303496,4.511472 12.936552,3.865584 12.163992,4.33608 C11.391432,4.806576 10.678728,5.68632 11.687928,7.681056 C12.697128,9.676488 7.52724,12.728448 5.148312,7.388736 C5.148312,7.388736 4.609608,6.036408 5.089152,5.15736 C5.089152,5.15736 -1.035648,8.71392 0.15312,17.237136 C1.34328,25.75896 12.818232,26.641488 16.741584,25.17432 C16.741584,25.17432 16.504944,23.58048 14.7204,21.943488 C12.936552,20.307888 13.353456,19.478256 14.06616,18.24564 C14.06616,18.24564 8.299104,20.06568 5.325792,13.256712 C5.325792,13.256712 8.299104,18.083472 13.054872,17.658912 C17.809944,17.233656 17.871888,17.836392 18.585288,18.365352 C18.585288,18.365352 19.893072,17.1912 17.336664,16.133976 C14.77956,15.076056 12.807096,15.838872 12.807096,15.838872 C12.807096,15.838872 13.75992,13.960368 15.662784,14.725272 C17.564952,15.490872 18.932592,17.95332 21.852312,15.257016 C21.85788,15.251448 21.32196,13.784976 22.272,12.847464 L22.272,12.84816 Z M15.275112,10.101048 C14.311848,10.02936 13.468992,8.841984 13.468992,8.841984 C17.237136,7.891248 17.632464,11.145744 17.632464,11.145744 C16.878696,9.982032 16.227936,10.172736 15.26676,10.101744 L15.275112,10.101744 L15.275112,10.101048 Z" id="Shape"></path>
            </g>
        </g>
        <g id="group_8-copy" transform="translate(66.000000, 16.000000)">
            <circle id="Oval" stroke="#000000" stroke-width="0.88" cx="19.14" cy="19.14" r="19.14"></circle>
            <path d="M31.37568,22.702824 L29.12412,23.82756 C29.12412,23.82756 30.841152,22.648536 30.03588,19.601448 C29.229912,16.55436 31.589352,16.232808 31.912296,16.072728 C31.912296,16.072728 25.476384,16.232808 26.488368,25.698408 C26.488368,25.698408 20.751936,31.151568 17.809248,22.489152 C17.809248,22.489152 14.804616,20.99136 16.995624,17.99856 C16.995624,17.99856 16.298928,21.153528 18.389712,22.054152 C20.480496,22.95408 21.126384,21.57252 22.306104,23.978592 C22.306104,23.978592 23.391168,21.894072 20.698344,19.969632 C20.698344,19.969632 18.229632,19.325832 18.121056,17.614368 C18.7829515,18.8874916 20.1967254,19.5812593 21.608712,19.325832 C21.608712,19.325832 14.90484,16.384536 19.62372,10.984968 C19.62372,10.984968 17.693016,14.621568 19.732296,17.241312 C21.771576,19.861056 25.256448,19.488 27.884544,16.760376 C27.884544,16.760376 26.274,15.902904 24.559752,17.241312 C25.6469453,16.068886 27.1998147,15.4415645 28.796304,15.529848 C28.796304,15.529848 28.581936,10.557624 23.485824,9.381384 C18.389712,8.205144 14.690472,10.462968 14.26452,11.144352 C14.26452,11.144352 12.76464,9.863016 9.008328,11.415096 C5.252016,12.967176 5.146224,17.512056 4.289448,18.796176 C3.432672,20.0796 2.786784,21.307344 0.696,19.972416 C0.696,19.972416 1.9836,22.429296 4.76412,20.242464 C7.543944,18.054936 7.98312,16.016352 9.374424,17.033208 C9.374424,17.033208 10.188744,13.075056 13.397304,12.220368 C13.397304,12.220368 8.62344,15.053784 10.286184,21.256536 C11.948232,27.457896 19.563864,32.592984 27.556728,26.496024 C27.556728,26.496024 33.67248,28.101696 36.1920431,22.005432 C36.203136,21.994296 34.057368,25.362936 31.37568,22.702824 L31.37568,22.702824 Z M26.08608,13.469688 C25.544592,12.601776 25.053216,12.745152 24.3426,12.690864 C23.63268,12.637272 23.011152,11.752656 23.011152,11.752656 C25.802112,11.028816 26.086776,13.456464 26.086776,13.456464 L26.086776,13.469688 L26.08608,13.469688 Z" id="Shape" fill="#000000" fill-rule="nonzero"></path>
        </g>
        <g id="group_9-copy" transform="translate(164.000000, 16.000000)">
            <circle id="Oval" stroke="#000000" stroke-width="0.88" cx="19.14" cy="19.14" r="19.14"></circle>
            <g id="Group" transform="translate(5.568000, 6.264000)" fill="#000000" fill-rule="nonzero">
                <path d="M20.184,5.1156 C20.184,5.1156 18.921456,6.835416 16.53,5.348064 C16.53,5.348064 13.330488,0.934032 7.92048,3.53568 C2.510472,6.13872 -0.421776,16.68312 4.04376,21.576 C4.04376,21.576 1.60776,20.18052 0.704352,17.486304 L1.110816,17.021376 L0.57072,16.69704 C0.57072,16.69704 -0.87348,13.49196 0.833112,8.42856 L2.051112,8.753592 L1.192248,7.592664 C1.192248,7.592664 2.725536,3.084672 7.145832,1.042608 L7.956672,2.294712 L7.775712,0.67164 C7.775712,0.67164 16.479888,-2.549448 20.184,5.1156 Z" id="Path"></path>
                <path d="M27.144,13.549728 C27.144,13.549728 21.671352,12.954648 22.338816,5.760096 L20.915496,5.622984 C20.915496,5.622984 18.822624,7.914912 16.730448,5.394 C16.317752,4.8206527 15.6551166,4.48001667 14.948688,4.478064 C13.703544,4.432128 12.102048,4.295016 11.613456,2.784 C11.613456,2.784 10.810272,7.7778 16.285704,6.220848 C16.285704,6.220848 14.8596,8.189832 12.547488,6.678816 C12.547488,6.678816 8.942208,9.196944 8.008872,12.873216 C7.07484,16.550184 7.122168,26.709696 19.576392,24.824928 C19.576392,24.824928 13.125168,22.131408 18.64236,17.493264 C18.64236,17.493264 10.988448,17.310216 14.815056,10.023792 C14.815056,10.023792 13.748088,13.002672 14.460096,14.514384 C15.171408,16.024704 16.463184,16.211232 18.331248,16.6692 C19.5909048,16.9867873 20.8376928,17.3533941 22.068768,17.768184 C22.068768,17.768184 19.932048,18.592248 20.376792,20.058024 C20.821536,21.522408 22.336032,21.70824 19.576392,22.716048 C19.576392,22.716048 22.336032,23.815032 22.6026,20.884176 C22.6026,20.884176 20.6016,19.095456 23.04804,17.951232 C23.04804,17.951232 24.559752,18.220584 24.02592,17.26428 C23.492088,16.307976 21.269064,16.07412 21.269064,16.07412 C22.1584049,15.7490551 23.1437764,15.8155557 23.981376,16.257168 C25.495872,16.98936 26.786256,16.760376 26.596944,14.788608 C26.610864,14.78652 26.432688,13.824648 27.144,13.549728 L27.144,13.549728 Z M19.539504,10.301496 C18.624264,10.417032 17.6088,9.417576 17.6088,9.417576 C20.967696,7.759008 21.949056,10.86456 21.949056,10.86456 C21.028248,9.870672 20.45544,10.18248 19.539504,10.301496 L19.539504,10.301496 Z" id="Shape"></path>
            </g>
        </g>
        <g id="group_10-copy" transform="translate(66.000000, 65.000000)">
            <circle id="Oval" stroke="#000000" stroke-width="0.88" cx="19.14" cy="19.14" r="19.14"></circle>
            <path d="M26.316456,9.53868 C26.316456,9.53868 24.492936,6.005784 17.136216,5.590968 C9.779496,5.176152 5.713464,10.504728 4.522608,13.826736 C3.331752,17.148744 0.24708,29.539632 16.365048,30.369264 C16.365048,30.369264 10.340472,28.985616 7.745088,23.725248 C5.149008,18.46488 7.60728,15.557688 8.935944,15.282072 C8.935944,15.282072 6.764424,21.85788 10.18944,25.248792 C13.615848,28.638312 15.935616,28.985616 21.329616,29.954448 C21.329616,29.954448 24.975264,30.855768 23.432928,34.8 C23.432928,34.8 26.727096,31.131384 22.382664,28.5708 C18.038232,26.00952 13.606104,27.740472 13.6938,18.121056 C13.6938,18.121056 13.132824,25.802808 21.260712,26.63244 C21.260712,26.63244 17.86284,25.433928 18.565104,22.87404 C18.565104,22.87404 14.211624,19.97868 15.584136,15.836088 C15.584136,15.836088 15.233352,21.025464 21.402,23.034816 C21.402,23.034816 22.803048,23.588832 25.185456,23.449632 C27.567168,23.310432 29.529888,25.802112 25.746432,27.601272 C25.746432,27.601272 31.210032,27.94788 31.980504,22.065288 C31.980504,22.065288 29.247312,23.377944 26.516904,22.340904 C23.787192,21.303864 26.796,18.672288 29.3886,18.74328 C31.980504,18.814272 33.664128,18.396672 32.472576,22.272696 C32.472576,22.272696 36.606816,20.335032 35.206464,16.80492 C35.206464,16.80492 34.435296,15.904296 35.275368,15.213864 C35.275368,15.213864 33.595224,15.696888 31.200288,14.037624 C28.806048,12.377664 27.015936,8.429952 20.207664,10.71492 C18.9576941,10.9621767 17.6713939,10.9621767 16.421424,10.71492 C14.3898,10.29732 11.587704,10.504728 11.308608,10.922328 C11.308608,10.922328 12.988752,13.758528 16.844592,12.721488 C20.699736,11.684448 26.442432,9.6744 28.965432,14.173344 C28.965432,14.173344 24.890352,15.213864 22.938072,12.027576 C22.938072,12.027576 20.765856,11.75196 18.235896,13.203816 C15.706632,14.656368 11.180544,13.677792 10.490808,10.43652 C10.490808,10.43652 13.85388,8.49816 17.217648,10.089912 C17.217648,10.089912 20.23272,8.49816 24.577152,9.470472 C24.577152,9.470472 19.461552,7.463904 17.640816,8.361744 C17.627592,8.35896 20.358,6.144984 26.316456,9.537984 L26.316456,9.53868 Z" id="Path" fill="#000000" fill-rule="nonzero"></path>
        </g>
        <g id="group_11-copy" transform="translate(163.000000, 65.000000)">
            <circle id="Oval" stroke="#000000" stroke-width="0.88" cx="19.14" cy="19.14" r="19.14"></circle>
            <g id="Group" transform="translate(6.960000, 6.264000)" fill="#000000" fill-rule="nonzero">
                <path d="M20.628744,10.366224 L22.141848,11.5536 C22.141848,11.5536 22.956168,5.616024 20.51112,3.48 C20.51112,3.48 16.67268,5.974464 17.25384,13.21704 C17.25384,13.21704 14.81088,9.417576 18.53448,4.31172 C18.53448,4.31172 10.037016,6.447744 8.873304,6.8034 C8.873304,6.8034 4.568544,9.773928 8.873304,16.77012 L20.039232,17.4 C20.039232,17.4 16.5474,12.843288 19.922304,5.137176 C19.925088,5.134392 21.211992,8.942208 20.628744,10.366224 Z" id="Path"></path>
                <path d="M20.45892,8.352 C20.45892,8.352 18.22476,11.490264 20.797176,13.88172 C23.164272,16.082472 24.57228,19.243008 20.683728,21.895464 C16.79448,24.54792 13.410528,20.37192 7.656,23.58744 C7.656,23.58744 19.8882,28.778904 23.732904,19.636248 C23.732904,19.636248 25.820208,14.672376 22.37988,12.527304 C22.374312,12.527304 19.893768,11.05944 20.45892,8.351304 L20.45892,8.352 Z" id="Path"></path>
                <path d="M20.106048,13.92 C20.106048,13.92 21.48204,19.464336 16.704,22.272 C16.704,22.272 21.157704,22.107048 22.089648,19.362024 C22.989576,16.703304 20.271,14.249208 20.106048,13.92 L20.106048,13.92 Z M9.021552,22.272 C9.021552,22.272 -0.993888,16.32816 5.016768,5.85336 C5.016768,5.85336 4.570632,5.678664 3.177936,7.348368 C1.785936,9.018768 2.904408,0.72732 11.136,0.44196 C11.136,0.44196 7.4646,-1.460208 3.5148,2.630184 C-0.435696,6.71988 -3.663744,18.128016 9.021552,22.272 Z" id="Shape"></path>
                <path d="M9.744,22.232328 C9.744,22.232328 4.340952,21.170232 1.619592,17.126472 C0.895752,16.05324 0.22272,14.011872 0.085608,12.528 C0.085608,12.528 -0.688344,17.548248 2.415816,20.5494 C5.254104,23.299296 7.528632,23.467728 9.744,22.232328 Z" id="Path"></path>
            </g>
        </g>
        <g id="group_6-copy" transform="translate(212.000000, 65.000000)">
            <circle id="Oval" stroke="#000000" stroke-width="0.88" cx="19.14" cy="19.14" r="19.14"></circle>
            <g id="Group" transform="translate(6.960000, 4.872000)" fill="#000000" fill-rule="nonzero">
                <path d="M22.249032,4.915848 C21.998472,3.32688 20.181912,3.672792 20.077512,4.766904 C19.97172,5.861016 21.008064,5.861016 21.008064,5.861016 C19.819296,6.905016 17.492568,6.606432 15.733776,5.065488 C13.974984,3.523848 13.572,3.314352 12.731232,3.57396 C12.3082927,3.68925175 11.9705772,4.0076543 11.830608,4.42308 C11.6920381,4.00778044 11.355145,3.68916839 10.932768,3.57396 C10.094088,3.314352 9.68136,3.523848 7.930224,5.065488 C6.178392,6.606432 3.844704,6.905016 2.655936,5.861016 C2.655936,5.861016 3.689496,5.861016 3.586488,4.766904 C3.484176,3.672792 1.672488,3.324096 1.414968,4.915848 C1.157448,6.508296 3.12156,7.152792 4.982664,6.905016 C6.844464,6.65724 8.851032,5.683536 9.325704,5.702328 C10.204056,5.753136 10.929984,5.943144 11.289816,6.346824 C11.438064,6.508296 11.690712,6.176304 11.827824,5.688408 C11.965632,6.168648 12.221064,6.508296 12.365832,6.346824 C12.728448,5.950104 13.451592,5.753136 14.329944,5.702328 C14.805312,5.673792 16.81188,6.645408 18.672984,6.905016 C20.534784,7.164624 22.509336,6.505512 22.249032,4.915848 L22.249032,4.915848 Z" id="Path"></path>
                <path d="M13.92,1.74 C13.92,2.70097546 13.1409755,3.48 12.18,3.48 C11.2190245,3.48 10.44,2.70097546 10.44,1.74 C10.44,0.779024535 11.2190245,3.90798505e-16 12.18,3.90798505e-16 C13.1409755,3.90798505e-16 13.92,0.779024535 13.92,1.74 Z M0.053592,19.488 C0.053592,19.488 -0.046632,17.185632 1.317528,16.504248 C1.317528,16.504248 0.76212,10.849944 2.784,7.656 C2.77704,7.656 -0.450312,10.064856 0.053592,19.488 Z M2.981664,7.656 C2.981664,7.656 2.622528,14.529696 8.352,17.940792 C8.10000441,18.2614089 7.80704144,18.547586 7.480608,18.792 C7.480608,18.792 1.650216,13.730688 2.981664,7.656 L2.981664,7.656 Z" id="Shape"></path>
                <path d="M9.048,15.312 C9.048,15.312 4.664592,13.533024 3.513408,7.656 C3.513408,7.656 2.70744,13.74948 9.048,15.312 Z M6.96,17.784888 L4.926288,15.312 C4.926288,15.312 1.355808,15.687144 0.696,19.883328 C0.696,19.883328 3.937272,20.314848 5.420448,20.143632 C5.420448,20.151288 4.045848,18.217104 6.96,17.784888 Z" id="Shape"></path>
                <path d="M5.568,14.719008 C5.568,14.719008 6.813144,16.92672 8.537832,17.4 C8.951952,16.720704 9.122472,15.89664 9.018072,15.087888 C9.018072,15.087888 6.479064,14.350128 5.568,14.719008 Z" id="Path"></path>
                <path d="M9.939576,15.312 C9.939576,15.312 10.858296,18.123144 6.975312,19.903512 C6.975312,19.903512 4.420992,21.040776 0.696,20.01348 C0.696,20.01348 3.605976,23.362632 7.484088,21.903816 C11.362896,20.445 10.51308,16.504248 9.939576,15.312 L9.939576,15.312 Z M24.306408,19.488 C24.306408,19.488 24.406632,17.184936 23.042472,16.503552 C23.042472,16.503552 23.599272,10.85064 21.576,7.65599759 C21.578784,7.653216 24.8124,10.065552 24.306408,19.488 Z M21.379032,7.656 C21.379032,7.656 21.738168,14.529696 16.008,17.938704 C16.261344,18.260256 16.553664,18.547008 16.876608,18.792 C16.876608,18.792 22.708392,13.730688 21.379032,7.656 Z" id="Shape"></path>
                <path d="M15.312,15.312 C15.312,15.312 19.695408,13.535112 20.846592,7.65599905 C20.846592,7.653216 21.65256,13.748784 15.312,15.312 Z M18.096,17.786976 L20.127624,15.312 C20.127624,15.312 23.700888,15.689232 24.36,19.88472 C24.36,19.88472 21.11664,20.313456 19.632768,20.144328 C19.632768,20.15268 21.007368,18.216408 18.096,17.786976 Z" id="Shape"></path>
                <path d="M18.096,14.718312 C18.096,14.718312 16.85016,16.92672 15.125472,17.4 C14.7093394,16.7049526 14.5401175,15.8897445 14.645232,15.086496 C14.645232,15.086496 17.187024,14.352216 18.096,14.717616 L18.096,14.718312 Z" id="Path"></path>
                <path d="M14.41416,15.312 C14.41416,15.312 13.49544,18.12036 17.380512,19.903512 C17.380512,19.903512 19.934136,21.037992 23.664,20.010696 C23.664,20.010696 20.751936,23.363328 16.868952,21.903816 C12.985968,20.445 13.858752,16.499376 14.414856,15.312 L14.41416,15.312 Z M12.178608,22.968 C11.1785886,22.9615089 10.1800731,23.0465435 9.195552,23.22204 C9.38208,23.73012 10.414944,25.905816 14.105832,24.745584 C14.105832,24.745584 10.780344,27.152352 7.71168,23.602752 C6.394152,24.049584 5.568,24.689208 5.568,25.40052 C5.568,26.748672 8.528088,27.84 12.178608,27.84 C15.829128,27.84 18.792,26.748672 18.792,25.40052 C18.792,24.052368 15.831912,22.968 12.178608,22.968 Z" id="Shape"></path>
                <path d="M10.403112,6.96 C10.403112,6.96 11.55708,8.563584 13.92,7.010112 L13.37016,9.85884 L11.998344,9.961152 C11.998344,9.961152 12.986664,10.531872 13.480824,10.37736 C13.480824,10.37736 11.227176,17.416704 13.810728,22.750848 C13.810728,22.750848 11.886288,24.769944 9.744,22.803048 C9.744,22.803048 13.42584,13.223304 10.403112,6.96 Z" id="Path"></path>
            </g>
        </g>
        <g id="group_7-copy" transform="translate(17.000000, 114.000000)">
            <circle id="Oval" stroke="#000000" stroke-width="0.88" cx="19.14" cy="19.14" r="19.14"></circle>
            <g id="Group" transform="translate(8.352000, 7.656000)" fill="#000000" fill-rule="nonzero">
                <path d="M10.811664,15.312 C10.811664,15.312 12.157728,12.020616 12.29832,9.860928 C12.438912,7.70124 13.31796,5.394696 10.34952,1.963416 C7.38108,-1.467864 1.9488,-0.01044 0.65076,3.32688 C-0.647976,6.6642 0.181656,8.5434 1.52076,9.718944 C1.52076,9.718944 1.103856,8.732016 2.357352,8.072904 C2.357352,8.072904 1.52076,10.423296 2.583552,12.20436 C2.583552,12.20436 4.532352,12.862776 5.97168,10.042584 C5.97168,10.042584 6.52848,12.862776 5.368944,14.272176 C5.368944,14.272176 7.965024,12.956736 8.994408,9.480216 C8.994408,9.480216 11.686536,7.786152 10.897968,4.496856 C10.902144,4.501728 13.592184,4.83024 10.811664,15.312 L10.811664,15.312 Z" id="Path"></path>
                <path d="M0.522696,9.744 C0.522696,9.744 2.729712,11.994168 2.631576,14.891616 C2.631576,14.891616 4.787784,13.541376 6.264,11.794416 C6.264,11.794416 5.969592,14.342472 5.183112,15.39204 C4.397328,16.441608 3.319224,18.04032 3.759792,18.792 C3.759792,18.792 0.228288,17.541984 0.032016,14.886744 C-0.164952,12.231504 0.620832,10.59312 0.522696,9.744 L0.522696,9.744 Z" id="Path"></path>
                <path d="M0.696,15.768576 C0.696,15.768576 0.648672,19.732296 2.63088,20.423424 C4.61448,21.114552 6.351,21.114552 6.644016,21.576 C6.644016,21.576 7.321224,16.82928 6.692736,14.616 C6.692736,14.616 3.358896,16.691472 4.757856,19.270848 C4.347912,18.5136 3.602496,17.972112 2.72832,17.79672 C1.713552,17.555904 0.889488,16.459704 0.696,15.768576 Z M10.970352,8.352 C10.970352,8.352 11.872368,11.370552 10.294536,13.479432 C10.294536,13.479432 8.626224,13.09524 8.672856,14.869344 C8.718792,16.642752 8.626224,18.079992 9.619416,17.792544 C10.611216,17.5044 12.324072,17.02416 12.772296,18.414768 C13.026336,19.121208 13.17876,19.864536 13.224,20.619 L12.4584,21.576 C12.4584,21.576 10.917456,19.563168 9.033384,19.18176 L8.987448,20.522952 C8.987448,20.522952 8.582376,18.845592 7.365072,17.934528 C7.365072,17.934528 7.635816,15.442848 6.96,14.628528 C6.96,14.628528 9.391824,12.856512 9.52824,9.934008 C9.52824,9.934008 10.521432,9.262368 10.970352,8.352 Z" id="Shape"></path>
                <path d="M7.60728,18.792 C7.60728,18.792 9.727992,19.57848 8.823888,23.805288 C8.823888,23.805288 5.968896,25.596792 3.48,22.7418 C3.48,22.7418 5.034864,21.76044 7.494528,23.077272 C7.494528,23.077272 6.251472,22.07016 7.60728,18.792 Z" id="Path"></path>
                <path d="M8.99928,20.184 C8.99928,20.184 11.03856,21.5064 10.264608,24.707304 C10.264608,24.707304 9.28464,26.146632 6.264,25.646904 C6.264,25.646904 7.992864,24.413592 8.923416,24.472056 C8.923416,24.472056 8.560104,23.619456 8.999976,20.184 L8.99928,20.184 Z M13.915128,24.31476 C13.915128,24.31476 14.099568,22.196832 12.244728,20.88 C12.244728,20.88 11.095632,22.785648 12.818232,24.126144 C12.818232,24.126144 11.304432,23.64312 10.44,25.737384 C10.44,25.744344 13.10568,25.97472 13.915128,24.31476 L13.915128,24.31476 Z" id="Shape"></path>
                <path d="M13.448808,23.155224 C12.999192,22.217712 13.23792,21.108984 14.03832,20.418552 C14.03832,20.418552 14.657064,19.938312 14.42112,19.488 C14.42112,19.488 16.042104,19.938312 14.363352,22.47732 C14.363352,22.47732 16.456224,21.37764 17.4,22.702824 C17.4,22.702824 16.54392,22.619304 16.16112,23.04108 C15.777624,23.463552 14.451048,24.141456 13.448808,23.155224 L13.448808,23.155224 Z" id="Path"></path>
                <path d="M15.54864,21.576 C15.54864,21.576 14.593728,19.625112 16.518168,18.792 C16.51608,18.79896 17.335272,20.58072 15.549336,21.576 L15.54864,21.576 Z M16.008,21.827952 C16.008,21.827952 17.536416,20.004432 19.488,21.41592 C19.488,21.41592 18.0612,23.027856 16.008,21.827952 Z" id="Shape"></path>
                <path d="M17.808552,20.88 C17.808552,20.88 16.549488,18.69456 18.452352,17.4 C18.452352,17.4 19.545768,19.405872 17.808552,20.88 Z" id="Path"></path>
                <path d="M18.096,20.605776 C18.096,20.605776 19.37316,18.721008 21.576,19.845744 C21.576,19.845744 20.369832,21.523104 18.096,20.605776 Z M19.652952,18.792 C19.652952,18.792 17.887896,17.48352 19.412136,16.008 C19.420488,16.008 20.971176,17.22252 19.652952,18.792 Z" id="Shape"></path>
                <path d="M19.488,18.755808 C19.488,18.755808 19.984248,17.01024 22.272,17.48004 C22.272,17.48004 21.770184,19.047432 19.488,18.755808 Z M20.349648,16.704 C20.349648,16.704 18.583896,15.394824 20.10744,13.92 C20.119272,13.92 21.665784,15.136608 20.349648,16.704 Z" id="Shape"></path>
                <path d="M21.300384,15.312 C21.300384,15.312 19.41492,14.28888 20.544528,12.528 C20.544528,12.533568 22.2198,13.493352 21.300384,15.312 Z" id="Path"></path>
                <path d="M21.650472,13.92 C21.650472,13.92 21.115248,12.212016 22.915104,11.832 C22.915104,11.832 23.362632,13.385472 21.650472,13.92 Z M21.45768,12.528 C21.45768,12.528 19.60284,11.958672 20.369832,10.44 C21.3324,10.765032 21.81612,11.6928 21.45768,12.528 Z" id="Shape"></path>
                <path d="M21.650472,12.528 C21.650472,12.528 21.11664,10.820712 22.908144,10.44 C23.158704,11.3448 22.59912,12.272568 21.650472,12.528 Z M21.242616,11.136 C21.242616,11.136 20.4102,10.045368 21.267672,9.048 C21.688056,9.637512 21.677616,10.563888 21.242616,11.136 Z M20.184,16.6692 C20.184,16.6692 20.554968,14.92224 22.272,15.39204 C22.272,15.394824 21.894072,16.95456 20.184,16.6692 Z" id="Shape"></path>
                <path d="M20.891832,15.312 C20.891832,15.312 20.659368,13.363896 22.266432,13.224 C22.266432,13.224 22.436952,14.98488 20.891832,15.312 Z" id="Path"></path>
            </g>
        </g>
        <g id="group-copy" transform="translate(213.000000, 16.000000)">
            <circle id="Oval" stroke="#000000" stroke-width="0.88" cx="19.14" cy="19.14" r="19.14"></circle>
            <g id="Group" transform="translate(6.264000, 7.656000)" fill="#000000" fill-rule="nonzero">
                <path d="M7.965024,5.210952 C7.965024,5.210952 11.6928,4.68408 11.832,1.062096 C11.832,1.062096 10.627224,3.440328 8.835024,3.358896 C8.835024,3.358896 8.441088,0.731496 11.662176,0.094656 C11.662176,0.094656 8.551752,-0.846336 5.750352,3.219 C5.750352,3.219 4.097352,6.70248 3.48,7.393608 C3.48,7.393608 4.798224,7.726296 5.6376,7.642776 L7.965024,5.210952 L7.965024,5.210952 Z M5.61324,8.499552 L3.32688,8.352 C3.32688,8.352 2.184048,8.52948 3.214824,9.684144 C4.244904,10.839504 6.477672,12.974136 6.477672,12.974136 C6.477672,12.974136 7.315656,13.685448 7.510536,12.707568 C7.705416,11.729688 7.761096,11.492352 7.315656,11.018376 C6.86952,10.545096 5.864496,9.359808 5.864496,9.359808 C5.80563662,9.06644138 5.72181158,8.77864205 5.613936,8.499552 L5.61324,8.499552 Z M18.48228,5.208864 C18.48228,5.208864 14.757288,4.68408 14.616,1.062096 C14.616,1.062096 15.82008,3.440328 17.614368,3.356112 C17.614368,3.356112 18.006216,0.729408 14.787912,0.09396 C14.787912,0.09396 17.896944,-0.84564 20.699736,3.219 C20.699736,3.219 22.352736,6.70248 22.968,7.393608 C22.968,7.393608 21.65256,7.726296 20.8104,7.642776 L18.48228,5.208864 L18.48228,5.208864 Z M20.834064,8.50164 L23.121816,8.352 C23.121816,8.352 24.264648,8.531568 23.23248,9.685536 C22.199616,10.840896 19.971024,12.974832 19.971024,12.974832 C19.971024,12.974832 19.135824,13.684752 18.93816,12.707568 C18.741192,11.730384 18.6876,11.493744 19.135128,11.019768 C19.583352,10.546488 20.585592,9.352152 20.585592,9.352152 C20.644752,9.061224 20.727576,8.77656 20.834064,8.50164 L20.834064,8.50164 Z M10.270176,9.262368 L9.662568,8.42508 C9.662568,8.42508 9.59436,9.71616 9.572088,9.896424 C9.54912,10.077384 8.580984,11.368464 8.222544,11.949624 C7.864104,12.53148 7.1862,13.716072 8.154336,14.915976 C9.123168,16.11588 9.955584,16.161816 12.010176,15.458856 C12.010176,15.458856 13.538592,14.938944 14.484456,15.504792 C15.429624,16.069944 17.117424,16.416552 18.153768,15.09624 C19.190112,13.775232 18.872736,12.76464 17.861448,11.49792 C16.849464,10.231896 16.779168,9.9354 16.779168,9.9354 L16.690776,8.352 L15.991992,9.264456 C15.991992,9.264456 13.48848,7.656696 10.270872,9.262368 L10.270176,9.262368 Z" id="Shape"></path>
                <path d="M17.4,15.78528 C17.4,15.78528 16.2342,16.479192 14.744064,15.703152 C13.254624,14.927112 12.069336,15.497136 11.336448,15.78528 C10.602864,16.07412 9.521976,16.092216 9.048,15.68436 C9.048,15.68436 10.298712,18.17604 13.082712,18.093912 C15.866712,18.011784 16.945512,16.644144 17.4,15.78528 Z M8.91576,15.296688 C8.91576,15.296688 7.38804,15.564648 6.222936,14.840808 C5.057832,14.116968 5.298648,14.422512 5.13996,14.537352 C5.13996,14.537352 4.25604,12.711048 3.008808,12.445176 C3.008808,12.445176 1.605672,11.683752 2.085216,9.744 C2.085216,9.744 0.639624,10.771296 1.923744,12.560016 L2.326032,12.711048 C2.326032,12.711048 2.045544,12.748632 2.207016,13.128648 C2.367792,13.510056 3.289992,15.487392 4.414728,14.915976 C4.414728,14.915976 4.25604,15.069096 4.496856,15.296688 C4.737672,15.524976 6.54588,16.514688 8.875392,15.6774 C8.875392,15.6774 9.23592,15.449808 8.915064,15.296688 L8.91576,15.296688 Z" id="Shape"></path>
                <path d="M8.352,15.894552 C8.352,15.894552 6.408768,16.62048 5.663352,16.329552 C4.91724,16.037928 4.5762,16.365744 4.467624,16.475712 C4.467624,16.475712 2.749896,16.365744 1.667616,15.060744 C1.667616,15.060744 0.02436,13.247664 0.061248,12.528 C0.061248,12.528 -0.273528,14.88396 0.622224,15.246576 L1.032864,15.318264 C1.032864,15.318264 0.734976,15.801984 1.293864,16.21332 C1.852752,16.625352 3.498096,17.241312 4.393848,16.84668 C4.393848,16.84668 3.945624,17.100024 4.319376,17.28168 C4.693824,17.46264 7.647648,17.680488 8.352,15.894552 L8.352,15.894552 Z M9.518496,17.4 C9.518496,17.4 7.373424,17.658912 6.741456,19.067616 L6.868824,19.363416 C6.868824,19.363416 6.154032,19.475472 6.278616,20.772816 L6.364224,21.736776 C6.364224,21.736776 5.943144,23.070312 7.415184,23.664 C7.415184,23.664 6.364224,22.5852 6.952344,21.700584 C6.952344,21.700584 8.176608,20.106048 7.331664,19.327224 C7.665744,19.293816 7.945536,19.090584 8.046456,18.808704 C8.215584,18.328464 9.308304,17.729904 9.643776,17.697888 C9.640992,17.697888 9.939576,17.47308 9.518496,17.4 L9.518496,17.4 Z" id="Shape"></path>
                <path d="M9.8136,18.10992 C9.8136,18.10992 8.33112,19.135128 8.354784,20.59464 L8.551752,20.81736 C8.551752,20.81736 8.067336,21.17928 8.607432,22.262256 L9.000672,23.069616 C9.109944,23.857488 9.736344,24.417072 10.44,24.355128 C10.44,24.355128 9.295776,23.81016 9.42036,22.81836 C9.42036,22.81836 9.762792,20.976744 8.876784,20.61204 C9.102984,20.467272 9.236616,20.189568 9.221304,19.895856 C9.178152,19.413528 9.776712,18.489936 10.00848,18.338904 C10.00848,18.331944 10.148376,18.027792 9.8136,18.10992 L9.8136,18.10992 Z M18.22476,15.296688 C18.22476,15.296688 19.751088,15.564648 20.916888,14.840112 C22.081992,14.116272 21.841176,14.421816 22.002648,14.536656 C22.002648,14.536656 22.887264,12.709656 24.135192,12.443784 C24.135192,12.443784 25.53972,11.684448 25.057392,9.744 C25.057392,9.744 26.506464,10.769208 25.218864,12.55932 L24.818664,12.709656 C24.818664,12.709656 25.099848,12.749328 24.93768,13.127952 C24.776208,13.507272 23.85192,15.487392 22.725792,14.918064 C22.725792,14.918064 22.887264,15.0684 22.646448,15.296688 C22.405632,15.524976 20.596032,16.514688 18.264432,15.6774 C18.264432,15.6774 17.913648,15.449112 18.22476,15.296688 L18.22476,15.296688 Z" id="Shape"></path>
                <path d="M17.4,15.895944 C17.4,15.895944 19.34184,16.622568 20.089344,16.330944 C20.837544,16.03932 21.176496,16.369224 21.282984,16.477104 C21.282984,16.477104 23.002104,16.369224 24.08508,15.062136 C24.08508,15.062136 25.726944,13.24836 25.690056,12.528 C25.690056,12.528 26.02692,14.884656 25.131168,15.247968 L24.720528,15.319656 C24.8917035,15.6398193 24.7746356,16.0380979 24.45744,16.214712 C23.898552,16.637184 22.2546,17.2434 21.358848,16.848072 C21.358848,16.848072 21.807072,17.101416 21.432624,17.283072 C21.058872,17.464728 18.110616,17.673528 17.4,15.895944 L17.4,15.895944 Z M16.930896,17.4 C16.930896,17.4 19.076664,17.661 19.705848,19.067616 L19.580568,19.365504 C19.580568,19.365504 20.296056,19.475472 20.168688,20.772816 L20.085168,21.736776 C20.085168,21.736776 20.506944,23.070312 19.034208,23.664 C19.034208,23.664 20.085168,22.5852 19.497744,21.700584 C19.497744,21.700584 18.272784,20.106048 19.118424,19.327224 C18.784344,19.293816 18.504552,19.090584 18.402936,18.808704 C18.233808,18.328464 17.141784,17.729904 16.803528,17.697888 C16.803528,17.697888 16.509816,17.475168 16.930896,17.4 Z" id="Shape"></path>
                <path d="M16.632312,18.1134 C16.632312,18.1134 18.117576,19.14 18.09252,20.602992 L17.895552,20.811792 C17.895552,20.811792 18.382056,21.175104 17.839872,22.259472 L17.445936,23.068224 C17.338056,23.856096 16.71096,24.417072 16.008,24.355824 C16.008,24.355824 17.152224,23.812248 17.028336,22.816272 C17.028336,22.816272 16.683816,20.972568 17.569824,20.607168 C17.343624,20.4624 17.209992,20.184 17.225304,19.890288 C17.268456,19.407264 16.671984,18.482976 16.437432,18.331248 C16.437432,18.324288 16.299624,18.021528 16.632312,18.1134 L16.632312,18.1134 Z" id="Path"></path>
            </g>
        </g>
        <g id="group_19-copy-2" transform="translate(65.000000, 114.000000)">
            <circle id="Oval" stroke="#000000" stroke-width="0.88" cx="19.14" cy="19.14" r="19.14"></circle>
            <g id="Group" transform="translate(6.960000, 8.608000)" fill="#000000" fill-rule="nonzero">
                <path d="M24.36,5.50688 C14.944512,8.28044 5.263848,14.051672 5.263848,14.051672 L5.145528,14.956472 C2.106096,16.05824 2.260608,18.536 2.260608,18.536 C1.754616,17.318 2.301672,15.586352 2.301672,15.586352 C0.780912,16.374224 0,14.440736 0,14.440736 C1.13448,16.04432 4.24908,13.627808 4.24908,13.627808 L5.107248,13.7858 C14.54292,8.190656 24.133104,5.312 24.133104,5.312 L24.36,5.50688 Z" id="Path"></path>
                <path d="M23.668872,7.4 L28.536,4.616 L22.968,4.725272 L24.407328,5.773448 L23.668872,7.4 Z M19.768488,6.628136 C19.768488,6.628136 19.309128,5.151224 18.560928,4.293056 C18.096,3.764096 17.278896,2.722184 15.881328,2.281616 C15.018984,2.008784 13.938792,1.964936 12.580896,2.403416 C12.580896,2.403416 11.113728,2.816144 10.135848,4.588856 C9.157968,6.362264 7.719336,7.869104 6.022488,7.219736 C4.32564,6.571064 4.814232,5.004368 5.5332,4.91528 C5.90354821,4.85653387 6.27877522,4.98657079 6.533352,5.261888 C6.790872,5.5382 6.902232,5.927264 6.828456,6.302408 C6.828456,6.302408 6.605736,6.80492 6.369096,6.894008 C6.369096,6.894008 7.862712,7.603928 9.271416,4.738496 C10.680816,1.87376 12.723576,0.274352 15.600144,0.453224 C18.476016,0.632792 19.65504,4.322984 20.804832,3.910256 C20.804832,3.910256 20.54592,4.766336 21.092976,6.156248 C21.640032,7.54616 21.640032,7.543376 22.272,7.782104 C22.272,7.782104 21.754176,8.011784 21.870408,9.110072 C21.985944,10.209056 22.093128,12.867776 20.950296,14.445608 C19.68636,16.178648 17.780016,17.296424 15.68436,17.533064 C13.49892,17.739776 10.191528,17.649992 11.19864,20.873168 C11.19864,20.873168 11.486784,19.985072 12.147288,20.131928 C12.808488,20.278784 13.264368,20.960168 12.549576,21.75848 C11.834784,22.556792 10.50612,21.372896 10.540224,19.95584 C10.573632,18.538088 10.56876,17.354192 13.27272,16.794608 C15.36072,16.361 17.738952,16.119488 19.03212,13.943096 C19.416312,13.2986 19.58544,12.459224 19.86036,11.445152 C20.488152,9.110072 19.768488,6.628832 19.768488,6.628832 L19.768488,6.628136 Z" id="Shape"></path>
                <path d="M4.49268,13.664 L7.656,7.4 L7.317744,7.484912 L4.176,13.60832 L4.49268,13.664 Z M10.44,18.975176 L4.347216,15.056 L4.176,15.185456 L10.44,19.232 L10.44,18.975176 Z" id="Shape"></path>
            </g>
        </g>
    </g>
</svg>